top_hdl.vcd
$date
	Sun Mar 12 11:39:55 2023
$end
$version
	QuestaSim Version 2023.1
$end
$timescale
	1ns
$end

$scope module top_hdl $end

$scope module vif_0 $end
$var wire 1 ! clk $end
$var wire 1 " done $end
$var reg 14 # addrout [13:0] $end
$var reg 1 $ cs $end
$var reg 16 % datafrommem [15:0] $end
$var reg 16 & datatomem [15:0] $end
$var reg 19 ' instr [18:0] $end
$var reg 1 ( mem_resp $end
$var reg 1 ) read_req $end
$var reg 16 * result [15:0] $end
$var reg 1 + write_req $end
$var integer 8 , A $end
$var integer 8 - B $end
$var reg 1 . reset_n $end
$var reg 1 / reset_start $end

$scope task reset_alu $end
$upscope $end

$scope task sample_instruction $end
$upscope $end

$scope task send_instruction $end
$var reg 19 0 i_instr [18:0] $end
$upscope $end
$upscope $end

$scope module vif_1 $end
$var wire 1 1 clk $end
$var wire 1 2 done $end
$var reg 14 3 addrout [13:0] $end
$var reg 1 4 cs $end
$var reg 16 5 datafrommem [15:0] $end
$var reg 16 6 datatomem [15:0] $end
$var reg 19 7 instr [18:0] $end
$var reg 1 8 mem_resp $end
$var reg 1 9 read_req $end
$var reg 16 : result [15:0] $end
$var reg 1 ; write_req $end
$var integer 8 < A $end
$var integer 8 = B $end
$var reg 1 > reset_n $end
$var reg 1 ? reset_start $end

$scope task reset_alu $end
$upscope $end

$scope task sample_instruction $end
$upscope $end

$scope task send_instruction $end
$var reg 19 @ i_instr [18:0] $end
$upscope $end
$upscope $end

$scope module vif_2 $end
$var wire 1 A clk $end
$var wire 1 B done $end
$var reg 14 C addrout [13:0] $end
$var reg 1 D cs $end
$var reg 16 E datafrommem [15:0] $end
$var reg 16 F datatomem [15:0] $end
$var reg 19 G instr [18:0] $end
$var reg 1 H mem_resp $end
$var reg 1 I read_req $end
$var reg 16 J result [15:0] $end
$var reg 1 K write_req $end
$var integer 8 L A $end
$var integer 8 M B $end
$var reg 1 N reset_n $end
$var reg 1 O reset_start $end

$scope task reset_alu $end
$upscope $end

$scope task sample_instruction $end
$upscope $end

$scope task send_instruction $end
$var reg 19 P i_instr [18:0] $end
$upscope $end
$upscope $end

$scope module vif_3 $end
$var wire 1 Q clk $end
$var wire 1 R done $end
$var reg 14 S addrout [13:0] $end
$var reg 1 T cs $end
$var reg 16 U datafrommem [15:0] $end
$var reg 16 V datatomem [15:0] $end
$var reg 19 W instr [18:0] $end
$var reg 1 X mem_resp $end
$var reg 1 Y read_req $end
$var reg 16 Z result [15:0] $end
$var reg 1 [ write_req $end
$var integer 8 \ A $end
$var integer 8 ] B $end
$var reg 1 ^ reset_n $end
$var reg 1 _ reset_start $end

$scope task reset_alu $end
$upscope $end

$scope task sample_instruction $end
$upscope $end

$scope task send_instruction $end
$var reg 19 ` i_instr [18:0] $end
$upscope $end
$upscope $end

$scope module PROC0 $end
$var wire 1 a clk $end
$var wire 16 % datafrommem [15:0] $end
$var wire 19 ' instr [18:0] $end
$var wire 1 ( mem_resp $end
$var wire 1 b reset_n $end
$var reg 8 c A [7:0] $end
$var reg 8 c A_in [7:0] $end
$var reg 8 d B [7:0] $end
$var reg 8 d B_in [7:0] $end
$var reg 14 e addr [13:0] $end
$var reg 14 f addrout [13:0] $end
$var reg 1 g alu_done $end
$var reg 16 h alu_result [15:0] $end
$var reg 1 i cs $end
$var reg 8 j datatoinst [7:0] $end
$var reg 16 k datatomem [15:0] $end
$var reg 1 l done $end
$var reg 1 m error $end
$var reg 1 n load $end
$var reg 1 o mem_done $end
$var reg 1 p preload $end
$var reg 1 q read_req $end
$var reg 16 r result [15:0] $end
$var reg 16 r result_in [15:0] $end
$var reg 1 s start $end
$var reg 1 t store $end
$var reg 1 u write_req $end
$var reg 4 v op [3:0] $end

$scope module ALU $end
$var wire 8 c A [7:0] $end
$var wire 8 d B [7:0] $end
$var wire 1 a clk $end
$var wire 1 b reset_n $end
$var reg 16 h result [15:0] $end
$var reg 16 w result_multi [15:0] $end
$var reg 16 x result_single [15:0] $end
$var reg 1 y done $end
$var reg 1 z done_multi $end
$var reg 1 { done_single $end
$var reg 1 | error $end
$var reg 1 } start $end
$var reg 1 ~ start_multi $end
$var reg 1 !! start_single $end
$var wire 4 v op [3:0] $end

$scope module alu_multi $end
$var wire 8 c A [7:0] $end
$var wire 8 d B [7:0] $end
$var wire 1 a clk $end
$var wire 1 b reset_n $end
$var wire 1 "! start $end
$var reg 8 #! a_int [7:0] $end
$var reg 8 $! b_int [7:0] $end
$var reg 1 %! is_4cycle $end
$var reg 16 &! mult1 [15:0] $end
$var reg 16 '! mult2 [15:0] $end
$var reg 16 w result [15:0] $end
$var reg 1 z done $end
$var reg 1 (! done1 $end
$var reg 1 )! done2 $end
$var reg 1 *! done3 $end
$var wire 4 v op [3:0] $end
$upscope $end

$scope module alu_single $end
$var wire 8 c A [7:0] $end
$var wire 8 d B [7:0] $end
$var wire 1 a clk $end
$var wire 1 b reset_n $end
$var wire 1 +! start $end
$var reg 16 x result [15:0] $end
$var reg 1 { done $end
$var wire 4 v op [3:0] $end
$upscope $end
$upscope $end

$scope module instunit $end
$var wire 1 g alu_done $end
$var wire 16 h alu_result [15:0] $end
$var wire 1 a clk $end
$var wire 8 j data [7:0] $end
$var wire 19 ' instr [18:0] $end
$var wire 1 o mem_done $end
$var wire 1 b reset_n $end
$var reg 8 c A [7:0] $end
$var reg 8 d B [7:0] $end
$var reg 14 e addr [13:0] $end
$var reg 14 ,! decode_addr [13:0] $end
$var reg 1 l done $end
$var reg 16 r last_result [15:0] $end
$var reg 1 n load $end
$var reg 1 -! loadReg $end
$var reg 8 c regA [7:0] $end
$var reg 8 d regB [7:0] $end
$var reg 16 r result [15:0] $end
$var reg 1 s start $end
$var reg 1 t store $end
$var integer 32 .! count $end
$var integer 32 /! fd $end
$var integer 32 0! index $end
$var reg 4 1! op [3:0] $end
$var reg 4 2! opcode [3:0] $end
$upscope $end

$scope module memInt $end
$var wire 14 e addr [13:0] $end
$var wire 1 a clk $end
$var wire 16 % datafrommem [15:0] $end
$var wire 1 n load $end
$var wire 1 ( mem_resp $end
$var wire 1 b reset_n $end
$var wire 16 r result [15:0] $end
$var wire 1 t store $end
$var reg 14 f addrout [13:0] $end
$var reg 4 3! counter [3:0] $end
$var reg 1 i cs $end
$var reg 8 j datatoinst [7:0] $end
$var reg 16 k datatomem [15:0] $end
$var reg 1 o mem_done $end
$var reg 1 q read_req $end
$var reg 1 u write_req $end
$upscope $end
$upscope $end

$scope module PROC1 $end
$var wire 1 4! clk $end
$var wire 16 5 datafrommem [15:0] $end
$var wire 19 7 instr [18:0] $end
$var wire 1 8 mem_resp $end
$var wire 1 5! reset_n $end
$var reg 8 6! A [7:0] $end
$var reg 8 6! A_in [7:0] $end
$var reg 8 7! B [7:0] $end
$var reg 8 7! B_in [7:0] $end
$var reg 14 8! addr [13:0] $end
$var reg 14 9! addrout [13:0] $end
$var reg 1 :! alu_done $end
$var reg 16 ;! alu_result [15:0] $end
$var reg 1 <! cs $end
$var reg 8 =! datatoinst [7:0] $end
$var reg 16 >! datatomem [15:0] $end
$var reg 1 ?! done $end
$var reg 1 @! error $end
$var reg 1 A! load $end
$var reg 1 B! mem_done $end
$var reg 1 C! preload $end
$var reg 1 D! read_req $end
$var reg 16 E! result [15:0] $end
$var reg 16 E! result_in [15:0] $end
$var reg 1 F! start $end
$var reg 1 G! store $end
$var reg 1 H! write_req $end
$var reg 4 I! op [3:0] $end

$scope module ALU $end
$var wire 8 6! A [7:0] $end
$var wire 8 7! B [7:0] $end
$var wire 1 4! clk $end
$var wire 1 5! reset_n $end
$var reg 16 ;! result [15:0] $end
$var reg 16 J! result_multi [15:0] $end
$var reg 16 K! result_single [15:0] $end
$var reg 1 L! done $end
$var reg 1 M! done_multi $end
$var reg 1 N! done_single $end
$var reg 1 O! error $end
$var reg 1 P! start $end
$var reg 1 Q! start_multi $end
$var reg 1 R! start_single $end
$var wire 4 I! op [3:0] $end

$scope module alu_multi $end
$var wire 8 6! A [7:0] $end
$var wire 8 7! B [7:0] $end
$var wire 1 4! clk $end
$var wire 1 5! reset_n $end
$var wire 1 S! start $end
$var reg 8 T! a_int [7:0] $end
$var reg 8 U! b_int [7:0] $end
$var reg 1 V! is_4cycle $end
$var reg 16 W! mult1 [15:0] $end
$var reg 16 X! mult2 [15:0] $end
$var reg 16 J! result [15:0] $end
$var reg 1 M! done $end
$var reg 1 Y! done1 $end
$var reg 1 Z! done2 $end
$var reg 1 [! done3 $end
$var wire 4 I! op [3:0] $end
$upscope $end

$scope module alu_single $end
$var wire 8 6! A [7:0] $end
$var wire 8 7! B [7:0] $end
$var wire 1 4! clk $end
$var wire 1 5! reset_n $end
$var wire 1 \! start $end
$var reg 16 K! result [15:0] $end
$var reg 1 N! done $end
$var wire 4 I! op [3:0] $end
$upscope $end
$upscope $end

$scope module instunit $end
$var wire 1 :! alu_done $end
$var wire 16 ;! alu_result [15:0] $end
$var wire 1 4! clk $end
$var wire 8 =! data [7:0] $end
$var wire 19 7 instr [18:0] $end
$var wire 1 B! mem_done $end
$var wire 1 5! reset_n $end
$var reg 8 6! A [7:0] $end
$var reg 8 7! B [7:0] $end
$var reg 14 8! addr [13:0] $end
$var reg 14 ]! decode_addr [13:0] $end
$var reg 1 ?! done $end
$var reg 16 E! last_result [15:0] $end
$var reg 1 A! load $end
$var reg 1 ^! loadReg $end
$var reg 8 6! regA [7:0] $end
$var reg 8 7! regB [7:0] $end
$var reg 16 E! result [15:0] $end
$var reg 1 F! start $end
$var reg 1 G! store $end
$var integer 32 _! count $end
$var integer 32 `! fd $end
$var integer 32 a! index $end
$var reg 4 b! op [3:0] $end
$var reg 4 c! opcode [3:0] $end
$upscope $end

$scope module memInt $end
$var wire 14 8! addr [13:0] $end
$var wire 1 4! clk $end
$var wire 16 5 datafrommem [15:0] $end
$var wire 1 A! load $end
$var wire 1 8 mem_resp $end
$var wire 1 5! reset_n $end
$var wire 16 E! result [15:0] $end
$var wire 1 G! store $end
$var reg 14 9! addrout [13:0] $end
$var reg 4 d! counter [3:0] $end
$var reg 1 <! cs $end
$var reg 8 =! datatoinst [7:0] $end
$var reg 16 >! datatomem [15:0] $end
$var reg 1 B! mem_done $end
$var reg 1 D! read_req $end
$var reg 1 H! write_req $end
$upscope $end
$upscope $end

$scope module PROC2 $end
$var wire 1 e! clk $end
$var wire 16 E datafrommem [15:0] $end
$var wire 19 G instr [18:0] $end
$var wire 1 H mem_resp $end
$var wire 1 f! reset_n $end
$var reg 8 g! A [7:0] $end
$var reg 8 g! A_in [7:0] $end
$var reg 8 h! B [7:0] $end
$var reg 8 h! B_in [7:0] $end
$var reg 14 i! addr [13:0] $end
$var reg 14 j! addrout [13:0] $end
$var reg 1 k! alu_done $end
$var reg 16 l! alu_result [15:0] $end
$var reg 1 m! cs $end
$var reg 8 n! datatoinst [7:0] $end
$var reg 16 o! datatomem [15:0] $end
$var reg 1 p! done $end
$var reg 1 q! error $end
$var reg 1 r! load $end
$var reg 1 s! mem_done $end
$var reg 1 t! preload $end
$var reg 1 u! read_req $end
$var reg 16 v! result [15:0] $end
$var reg 16 v! result_in [15:0] $end
$var reg 1 w! start $end
$var reg 1 x! store $end
$var reg 1 y! write_req $end
$var reg 4 z! op [3:0] $end

$scope module ALU $end
$var wire 8 g! A [7:0] $end
$var wire 8 h! B [7:0] $end
$var wire 1 e! clk $end
$var wire 1 f! reset_n $end
$var reg 16 l! result [15:0] $end
$var reg 16 {! result_multi [15:0] $end
$var reg 16 |! result_single [15:0] $end
$var reg 1 }! done $end
$var reg 1 ~! done_multi $end
$var reg 1 !" done_single $end
$var reg 1 "" error $end
$var reg 1 #" start $end
$var reg 1 $" start_multi $end
$var reg 1 %" start_single $end
$var wire 4 z! op [3:0] $end

$scope module alu_multi $end
$var wire 8 g! A [7:0] $end
$var wire 8 h! B [7:0] $end
$var wire 1 e! clk $end
$var wire 1 f! reset_n $end
$var wire 1 &" start $end
$var reg 8 '" a_int [7:0] $end
$var reg 8 (" b_int [7:0] $end
$var reg 1 )" is_4cycle $end
$var reg 16 *" mult1 [15:0] $end
$var reg 16 +" mult2 [15:0] $end
$var reg 16 {! result [15:0] $end
$var reg 1 ~! done $end
$var reg 1 ," done1 $end
$var reg 1 -" done2 $end
$var reg 1 ." done3 $end
$var wire 4 z! op [3:0] $end
$upscope $end

$scope module alu_single $end
$var wire 8 g! A [7:0] $end
$var wire 8 h! B [7:0] $end
$var wire 1 e! clk $end
$var wire 1 f! reset_n $end
$var wire 1 /" start $end
$var reg 16 |! result [15:0] $end
$var reg 1 !" done $end
$var wire 4 z! op [3:0] $end
$upscope $end
$upscope $end

$scope module instunit $end
$var wire 1 k! alu_done $end
$var wire 16 l! alu_result [15:0] $end
$var wire 1 e! clk $end
$var wire 8 n! data [7:0] $end
$var wire 19 G instr [18:0] $end
$var wire 1 s! mem_done $end
$var wire 1 f! reset_n $end
$var reg 8 g! A [7:0] $end
$var reg 8 h! B [7:0] $end
$var reg 14 i! addr [13:0] $end
$var reg 14 0" decode_addr [13:0] $end
$var reg 1 p! done $end
$var reg 16 v! last_result [15:0] $end
$var reg 1 r! load $end
$var reg 1 1" loadReg $end
$var reg 8 g! regA [7:0] $end
$var reg 8 h! regB [7:0] $end
$var reg 16 v! result [15:0] $end
$var reg 1 w! start $end
$var reg 1 x! store $end
$var integer 32 2" count $end
$var integer 32 3" fd $end
$var integer 32 4" index $end
$var reg 4 5" op [3:0] $end
$var reg 4 6" opcode [3:0] $end
$upscope $end

$scope module memInt $end
$var wire 14 i! addr [13:0] $end
$var wire 1 e! clk $end
$var wire 16 E datafrommem [15:0] $end
$var wire 1 r! load $end
$var wire 1 H mem_resp $end
$var wire 1 f! reset_n $end
$var wire 16 v! result [15:0] $end
$var wire 1 x! store $end
$var reg 14 j! addrout [13:0] $end
$var reg 4 7" counter [3:0] $end
$var reg 1 m! cs $end
$var reg 8 n! datatoinst [7:0] $end
$var reg 16 o! datatomem [15:0] $end
$var reg 1 s! mem_done $end
$var reg 1 u! read_req $end
$var reg 1 y! write_req $end
$upscope $end
$upscope $end

$scope module PROC3 $end
$var wire 1 8" clk $end
$var wire 16 U datafrommem [15:0] $end
$var wire 19 W instr [18:0] $end
$var wire 1 X mem_resp $end
$var wire 1 9" reset_n $end
$var reg 8 :" A [7:0] $end
$var reg 8 :" A_in [7:0] $end
$var reg 8 ;" B [7:0] $end
$var reg 8 ;" B_in [7:0] $end
$var reg 14 <" addr [13:0] $end
$var reg 14 =" addrout [13:0] $end
$var reg 1 >" alu_done $end
$var reg 16 ?" alu_result [15:0] $end
$var reg 1 @" cs $end
$var reg 8 A" datatoinst [7:0] $end
$var reg 16 B" datatomem [15:0] $end
$var reg 1 C" done $end
$var reg 1 D" error $end
$var reg 1 E" load $end
$var reg 1 F" mem_done $end
$var reg 1 G" preload $end
$var reg 1 H" read_req $end
$var reg 16 I" result [15:0] $end
$var reg 16 I" result_in [15:0] $end
$var reg 1 J" start $end
$var reg 1 K" store $end
$var reg 1 L" write_req $end
$var reg 4 M" op [3:0] $end

$scope module ALU $end
$var wire 8 :" A [7:0] $end
$var wire 8 ;" B [7:0] $end
$var wire 1 8" clk $end
$var wire 1 9" reset_n $end
$var reg 16 ?" result [15:0] $end
$var reg 16 N" result_multi [15:0] $end
$var reg 16 O" result_single [15:0] $end
$var reg 1 P" done $end
$var reg 1 Q" done_multi $end
$var reg 1 R" done_single $end
$var reg 1 S" error $end
$var reg 1 T" start $end
$var reg 1 U" start_multi $end
$var reg 1 V" start_single $end
$var wire 4 M" op [3:0] $end

$scope module alu_multi $end
$var wire 8 :" A [7:0] $end
$var wire 8 ;" B [7:0] $end
$var wire 1 8" clk $end
$var wire 1 9" reset_n $end
$var wire 1 W" start $end
$var reg 8 X" a_int [7:0] $end
$var reg 8 Y" b_int [7:0] $end
$var reg 1 Z" is_4cycle $end
$var reg 16 [" mult1 [15:0] $end
$var reg 16 \" mult2 [15:0] $end
$var reg 16 N" result [15:0] $end
$var reg 1 Q" done $end
$var reg 1 ]" done1 $end
$var reg 1 ^" done2 $end
$var reg 1 _" done3 $end
$var wire 4 M" op [3:0] $end
$upscope $end

$scope module alu_single $end
$var wire 8 :" A [7:0] $end
$var wire 8 ;" B [7:0] $end
$var wire 1 8" clk $end
$var wire 1 9" reset_n $end
$var wire 1 `" start $end
$var reg 16 O" result [15:0] $end
$var reg 1 R" done $end
$var wire 4 M" op [3:0] $end
$upscope $end
$upscope $end

$scope module instunit $end
$var wire 1 >" alu_done $end
$var wire 16 ?" alu_result [15:0] $end
$var wire 1 8" clk $end
$var wire 8 A" data [7:0] $end
$var wire 19 W instr [18:0] $end
$var wire 1 F" mem_done $end
$var wire 1 9" reset_n $end
$var reg 8 :" A [7:0] $end
$var reg 8 ;" B [7:0] $end
$var reg 14 <" addr [13:0] $end
$var reg 14 a" decode_addr [13:0] $end
$var reg 1 C" done $end
$var reg 16 I" last_result [15:0] $end
$var reg 1 E" load $end
$var reg 1 b" loadReg $end
$var reg 8 :" regA [7:0] $end
$var reg 8 ;" regB [7:0] $end
$var reg 16 I" result [15:0] $end
$var reg 1 J" start $end
$var reg 1 K" store $end
$var integer 32 c" count $end
$var integer 32 d" fd $end
$var integer 32 e" index $end
$var reg 4 f" op [3:0] $end
$var reg 4 g" opcode [3:0] $end
$upscope $end

$scope module memInt $end
$var wire 14 <" addr [13:0] $end
$var wire 1 8" clk $end
$var wire 16 U datafrommem [15:0] $end
$var wire 1 E" load $end
$var wire 1 X mem_resp $end
$var wire 1 9" reset_n $end
$var wire 16 I" result [15:0] $end
$var wire 1 K" store $end
$var reg 14 =" addrout [13:0] $end
$var reg 4 h" counter [3:0] $end
$var reg 1 @" cs $end
$var reg 8 A" datatoinst [7:0] $end
$var reg 16 B" datatomem [15:0] $end
$var reg 1 F" mem_done $end
$var reg 1 H" read_req $end
$var reg 1 L" write_req $end
$upscope $end
$upscope $end

$scope module MSS $end
$var wire 14 # addr_0 [13:0] $end
$var wire 14 3 addr_1 [13:0] $end
$var wire 14 C addr_2 [13:0] $end
$var wire 14 S addr_3 [13:0] $end
$var wire 1 i" clk $end
$var wire 1 ) mem_read_req_0 $end
$var wire 1 9 mem_read_req_1 $end
$var wire 1 I mem_read_req_2 $end
$var wire 1 Y mem_read_req_3 $end
$var wire 16 & mem_write_data_0 [15:0] $end
$var wire 16 6 mem_write_data_1 [15:0] $end
$var wire 16 F mem_write_data_2 [15:0] $end
$var wire 16 V mem_write_data_3 [15:0] $end
$var wire 1 + mem_write_req_0 $end
$var wire 1 ; mem_write_req_1 $end
$var wire 1 K mem_write_req_2 $end
$var wire 1 [ mem_write_req_3 $end
$var wire 1 $ processor_req_0 $end
$var wire 1 4 processor_req_1 $end
$var wire 1 D processor_req_2 $end
$var wire 1 T processor_req_3 $end
$var wire 1 j" reset_n $end
$var parameter 32 k" BLOCK_SIZE $end
$var parameter 32 l" DATA_SIZE $end
$var parameter 32 m" MEM_SIZE $end
$var reg 14 n" addr [13:0] $end
$var reg 4 o" current_proc_req [3:0] $end
$var reg 4 p" current_proc_resp [3:0] $end
$var reg 4 q" grant [3:0] $end
$var reg 16 r" mem_read_data [15:0] $end
$var reg 16 s" mem_read_data_0 [15:0] $end
$var reg 16 t" mem_read_data_1 [15:0] $end
$var reg 16 u" mem_read_data_2 [15:0] $end
$var reg 16 v" mem_read_data_3 [15:0] $end
$var reg 1 w" mem_read_req $end
$var reg 16 x" mem_write_data [15:0] $end
$var reg 1 y" mem_write_req $end
$var reg 1 z" processor_resp_0 $end
$var reg 1 {" processor_resp_1 $end
$var reg 1 |" processor_resp_2 $end
$var reg 1 }" processor_resp_3 $end
$var reg 4 ~" requestor [3:0] $end

$scope task initialize_memory $end
$var integer 32 !# i $end
$upscope $end
$upscope $end
$upscope $end
$enddefinitions $end
#0
$dumpvars
0!
x"
01
x2
0A
xB
0Q
xR
0i"
0j"
b10 k"
b10 l"
b1100100 m"
bx n"
bx o"
bx p"
bx q"
bx r"
bx s"
bx t"
bx u"
bx v"
xw"
bx x"
xy"
xz"
x{"
x|"
x}"
b0 ~"
b0 !#
0a
0b
0g
0m
xp
bx v
bx h
0y
0|
1}
0~
1!!
0"!
bx #!
bx $!
x%!
bx &!
bx '!
bx w
0z
0(!
0)!
0*!
1+!
bx x
0{
bx e
bx ,!
xl
bx r
0n
x-!
b0 c
b0 d
1s
0t
b0 .!
b0 /!
b0 0!
bx 1!
bx 2!
bx f
bx 3!
xi
bx j
bx k
xo
xq
xu
04!
05!
0:!
0@!
xC!
bx I!
bx ;!
0L!
0O!
1P!
0Q!
1R!
0S!
bx T!
bx U!
xV!
bx W!
bx X!
bx J!
0M!
0Y!
0Z!
0[!
1\!
bx K!
0N!
bx 8!
bx ]!
x?!
bx E!
0A!
x^!
b0 6!
b0 7!
1F!
0G!
b0 _!
b0 `!
b0 a!
bx b!
bx c!
bx 9!
bx d!
x<!
bx =!
bx >!
xB!
xD!
xH!
0e!
0f!
0k!
0q!
xt!
bx z!
bx l!
0}!
0""
1#"
0$"
1%"
0&"
bx '"
bx ("
x)"
bx *"
bx +"
bx {!
0~!
0,"
0-"
0."
1/"
bx |!
0!"
bx i!
bx 0"
xp!
bx v!
0r!
x1"
b0 g!
b0 h!
1w!
0x!
b0 2"
b0 3"
b0 4"
bx 5"
bx 6"
bx j!
bx 7"
xm!
bx n!
bx o!
xs!
xu!
xy!
08"
09"
0>"
0D"
xG"
bx M"
bx ?"
0P"
0S"
1T"
0U"
1V"
0W"
bx X"
bx Y"
xZ"
bx ["
bx \"
bx N"
0Q"
0]"
0^"
0_"
1`"
bx O"
0R"
bx <"
bx a"
xC"
bx I"
0E"
xb"
b0 :"
b0 ;"
1J"
0K"
b0 c"
b0 d"
b0 e"
bx f"
bx g"
bx ="
bx h"
x@"
bx A"
bx B"
xF"
xH"
xL"
bx #
x$
bx %
bx &
bx '
x(
x)
bx *
x+
b0 ,
b0 -
0.
1/
bx 0
bx 3
x4
bx 5
bx 6
bx 7
x8
x9
bx :
x;
b0 <
b0 =
0>
1?
bx @
bx C
xD
bx E
bx F
bx G
xH
xI
bx J
xK
b0 L
b0 M
0N
1O
bx P
bx S
xT
bx U
bx V
bx W
xX
xY
bx Z
x[
b0 \
b0 ]
0^
1_
bx `
$end
#10
1i"
18"
1e!
14!
1a
1!
11
1A
1Q
b110010 !#
b0 x
b0 w
b0 '!
b0 &!
b0 $!
b0 #!
b0 3!
0o
0u
0q
b0 k
b0 f
b0 j
b0 K!
b0 J!
b0 X!
b0 W!
b0 U!
b0 T!
b0 d!
0B!
0H!
0D!
b0 >!
b0 9!
b0 =!
b0 |!
b0 {!
b0 +"
b0 *"
b0 ("
b0 '"
b0 7"
0s!
0y!
0u!
b0 o!
b0 j!
b0 n!
b0 O"
b0 N"
b0 \"
b0 ["
b0 Y"
b0 X"
b0 h"
0F"
0L"
0H"
b0 B"
b0 ="
b0 A"
b100 q"
0y"
0w"
b0 n"
b0 S
b0 V
0Y
0[
0@"
b0 C
b0 F
0I
0K
0m!
b0 3
b0 6
09
0;
0<!
b0 #
b0 &
0)
0+
0i
0$
04
0D
0T
b0 o"
0C"
1J"
b0 ?"
0p!
1w!
b0 l!
0?!
1F!
b0 ;!
0l
1s
b0 h
0R
0B
02
0"
b0 r
1s
b0 E!
1F!
b0 v!
1w!
b0 I"
1J"
b0 Z
b0 J
b0 :
b0 *
#20
0i"
08"
0e!
04!
0a
0!
01
0A
0Q
0z"
0{"
0|"
0}"
0X
0H
08
0(
#30
1i"
18"
1e!
14!
1a
1!
11
1A
1Q
b110010 !#
#40
0i"
08"
0e!
04!
0a
0!
01
0A
0Q
1.
1>
1N
1^
1j"
19"
1f!
15!
1b
b1000000000000011010 0
#50
1i"
18"
1e!
14!
1a
1!
11
1A
1Q
bx x
bx K!
bx |!
bx O"
bx ?"
bx l!
bx ;!
bx h
#60
0i"
08"
0e!
04!
0a
0!
01
0A
0Q
b1000000000000011010 '
0/
b1000 2!
b1101 ,!
0-!
b1000 1!
b1101 e
0s
1n
0}
b1000 v
0%!
0!!
0+!
b1000000000000001110 0
#70
1i"
18"
1e!
14!
1a
1!
11
1A
1Q
b1 3!
b1101 f
b1101 #
#80
0i"
08"
0e!
04!
0a
0!
01
0A
0Q
#90
1i"
18"
1e!
14!
1a
1!
11
1A
1Q
b10 3!
1q
1)
1i
1$
b1 o"
#100
0i"
08"
0e!
04!
0a
0!
01
0A
0Q
#110
1i"
18"
1e!
14!
1a
1!
11
1A
1Q
b11 3!
b0 q"
1w"
b1101 n"
#120
0i"
08"
0e!
04!
0a
0!
01
0A
0Q
b0 x"
#130
1i"
18"
1e!
14!
1a
1!
11
1A
1Q
b100 3!
b1110 r"
1z"
1(
#140
0i"
08"
0e!
04!
0a
0!
01
0A
0Q
b1110 s"
b1110 %
#150
1i"
18"
1e!
14!
1a
1!
11
1A
1Q
b101 3!
0q
b1110 j
0)
0i
0$
b0 o"
#160
0i"
08"
0e!
04!
0a
0!
01
0A
0Q
#170
1i"
18"
1e!
14!
1a
1!
11
1A
1Q
b110 3!
b100 q"
0w"
b0 n"
#180
0i"
08"
0e!
04!
0a
0!
01
0A
0Q
0z"
0(
#190
1i"
18"
1e!
14!
1a
1!
11
1A
1Q
b111 3!
#200
0i"
08"
0e!
04!
0a
0!
01
0A
0Q
#210
1i"
18"
1e!
14!
1a
1!
11
1A
1Q
b1000 3!
#220
0i"
08"
0e!
04!
0a
0!
01
0A
0Q
#230
1i"
18"
1e!
14!
1a
1!
11
1A
1Q
b1001 3!
#240
0i"
08"
0e!
04!
0a
0!
01
0A
0Q
#250
1i"
18"
1e!
14!
1a
1!
11
1A
1Q
b1010 3!
b0 3!
1o
1l
b1110 c
b1110 ,
1"
#260
0i"
08"
0e!
04!
0a
0!
01
0A
0Q
#270
1i"
18"
1e!
14!
1a
1!
11
1A
1Q
b1 3!
b1110 #!
0o
0l
0"
b1000000000000001110 '
b111 ,!
b111 e
b1101011100010110 0
#280
0i"
08"
0e!
04!
0a
0!
01
0A
0Q
#290
1i"
18"
1e!
14!
1a
1!
11
1A
1Q
b10 3!
1q
b111 f
b111 #
1)
1i
1$
b1 o"
#300
0i"
08"
0e!
04!
0a
0!
01
0A
0Q
#310
1i"
18"
1e!
14!
1a
1!
11
1A
1Q
b11 3!
b0 q"
1w"
b111 n"
#320
0i"
08"
0e!
04!
0a
0!
01
0A
0Q
#330
1i"
18"
1e!
14!
1a
1!
11
1A
1Q
b100 3!
b1000 r"
1z"
1(
#340
0i"
08"
0e!
04!
0a
0!
01
0A
0Q
b1000 s"
b1000 %
#350
1i"
18"
1e!
14!
1a
1!
11
1A
1Q
b101 3!
0q
b1000 j
0)
0i
0$
b0 o"
#360
0i"
08"
0e!
04!
0a
0!
01
0A
0Q
#370
1i"
18"
1e!
14!
1a
1!
11
1A
1Q
b110 3!
b100 q"
0w"
b0 n"
#380
0i"
08"
0e!
04!
0a
0!
01
0A
0Q
0z"
0(
#390
1i"
18"
1e!
14!
1a
1!
11
1A
1Q
b111 3!
#400
0i"
08"
0e!
04!
0a
0!
01
0A
0Q
#410
1i"
18"
1e!
14!
1a
1!
11
1A
1Q
b1000 3!
#420
0i"
08"
0e!
04!
0a
0!
01
0A
0Q
#430
1i"
18"
1e!
14!
1a
1!
11
1A
1Q
b1001 3!
#440
0i"
08"
0e!
04!
0a
0!
01
0A
0Q
#450
1i"
18"
1e!
14!
1a
1!
11
1A
1Q
b1010 3!
b0 3!
1o
1l
b1000 c
b1000 ,
1"
#460
0i"
08"
0e!
04!
0a
0!
01
0A
0Q
#470
1i"
18"
1e!
14!
1a
1!
11
1A
1Q
b1 3!
b1000 #!
0o
0l
0"
b1101011100010110 '
b1 2!
b10101110001011 ,!
b1 1!
1s
0n
1}
b1 v
1!!
1+!
b1001000000000000001 0
#480
0i"
08"
0e!
04!
0a
0!
01
0A
0Q
#490
1i"
18"
1e!
14!
1a
1!
11
1A
1Q
1{
1y
1g
1l
0s
0}
1"
0!!
0+!
b1000 x
b1000 h
b1000 r
b1000 *
#500
0i"
08"
0e!
04!
0a
0!
01
0A
0Q
#510
1i"
18"
1e!
14!
1a
1!
11
1A
1Q
0{
0y
0g
0l
1s
1}
0"
b1001000000000000001 '
1!!
1+!
b1001 2!
b0 ,!
1-!
b1001 1!
0s
b0 e
1t
0}
b1001 v
0!!
0+!
b1000000000000100001 0
#520
0i"
08"
0e!
04!
0a
0!
01
0A
0Q
#530
1i"
18"
1e!
14!
1a
1!
11
1A
1Q
b10 3!
bx x
1u
b1000 k
b0 f
b0 #
b1000 &
1+
1i
1$
b1 o"
bx h
#540
0i"
08"
0e!
04!
0a
0!
01
0A
0Q
#550
1i"
18"
1e!
14!
1a
1!
11
1A
1Q
b11 3!
b0 q"
1y"
#560
0i"
08"
0e!
04!
0a
0!
01
0A
0Q
b1000 x"
#570
1i"
18"
1e!
14!
1a
1!
11
1A
1Q
b100 3!
1z"
1(
#580
0i"
08"
0e!
04!
0a
0!
01
0A
0Q
#590
1i"
18"
1e!
14!
1a
1!
11
1A
1Q
b101 3!
0u
0+
0i
0$
b0 o"
#600
0i"
08"
0e!
04!
0a
0!
01
0A
0Q
#610
1i"
18"
1e!
14!
1a
1!
11
1A
1Q
b110 3!
b100 q"
0y"
#620
0i"
08"
0e!
04!
0a
0!
01
0A
0Q
0z"
0(
#630
1i"
18"
1e!
14!
1a
1!
11
1A
1Q
b111 3!
#640
0i"
08"
0e!
04!
0a
0!
01
0A
0Q
#650
1i"
18"
1e!
14!
1a
1!
11
1A
1Q
b1000 3!
#660
0i"
08"
0e!
04!
0a
0!
01
0A
0Q
#670
1i"
18"
1e!
14!
1a
1!
11
1A
1Q
b1001 3!
