top_single.vcd
$date
	Sun Mar  5 19:46:28 2023
$end
$version
	QuestaSim Version 2023.1
$end
$timescale
	1ns
$end

$scope module top_single $end

$scope module vif $end
$var wire 1 ! done $end
$var wire 3 " op [2:0] $end
$var reg 19 # instr [18:0] $end
$var reg 16 $ result [15:0] $end
$var integer 8 % A $end
$var integer 8 & B $end
$var reg 1 ' clk $end
$var reg 1 ( reset_n $end
$var reg 1 ) reset_start $end
$var reg 1 * start $end

$scope task get_an_input $end
$upscope $end

$scope task get_an_output $end
$upscope $end

$scope task reset_alu $end
$upscope $end

$scope task sample_instruction $end
$upscope $end

$scope task send_instruction $end
$var reg 19 + i_instr [18:0] $end
$upscope $end
$upscope $end

$scope module DUT $end
$var wire 1 , clk $end
$var wire 19 # instr [18:0] $end
$var wire 1 - reset_n $end
$var reg 8 . A [7:0] $end
$var reg 8 / B [7:0] $end
$var reg 14 0 addr [13:0] $end
$var reg 14 1 addrout [13:0] $end
$var reg 1 2 alu_done $end
$var reg 16 3 alu_result [15:0] $end
$var reg 8 4 datafrommem [7:0] $end
$var reg 8 5 datatoinst [7:0] $end
$var reg 16 6 datatomem [15:0] $end
$var reg 1 7 done $end
$var reg 1 8 error $end
$var reg 1 9 load $end
$var reg 1 : mem_done $end
$var reg 1 ; mem_resp $end
$var reg 1 < preload $end
$var reg 1 = read_req $end
$var reg 16 > result [15:0] $end
$var reg 1 ? start $end
$var reg 1 @ store $end
$var reg 1 A write_req $end
$var reg 4 B op [3:0] $end

$scope module alu $end
$var wire 8 . A [7:0] $end
$var wire 8 / B [7:0] $end
$var wire 1 , clk $end
$var wire 1 - reset_n $end
$var reg 16 3 result [15:0] $end
$var reg 16 C result_multi [15:0] $end
$var reg 16 D result_single [15:0] $end
$var reg 1 E done $end
$var reg 1 F done_multi $end
$var reg 1 G done_single $end
$var reg 1 H error $end
$var reg 1 I start $end
$var reg 1 J start_multi $end
$var reg 1 K start_single $end
$var wire 4 B op [3:0] $end

$scope module alu_multi $end
$var wire 8 . A [7:0] $end
$var wire 8 / B [7:0] $end
$var wire 1 , clk $end
$var wire 1 - reset_n $end
$var wire 1 L start $end
$var reg 8 M a_int [7:0] $end
$var reg 8 N b_int [7:0] $end
$var reg 1 O is_4cycle $end
$var reg 16 P mult1 [15:0] $end
$var reg 16 Q mult2 [15:0] $end
$var reg 16 C result [15:0] $end
$var reg 1 F done $end
$var reg 1 R done1 $end
$var reg 1 S done2 $end
$var reg 1 T done3 $end
$var wire 4 B op [3:0] $end
$upscope $end

$scope module alu_single $end
$var wire 8 . A [7:0] $end
$var wire 8 / B [7:0] $end
$var wire 1 , clk $end
$var wire 1 - reset_n $end
$var wire 1 U start $end
$var reg 16 D result [15:0] $end
$var reg 1 G done $end
$var wire 4 B op [3:0] $end
$upscope $end
$upscope $end

$scope module instunit $end
$var wire 1 2 alu_done $end
$var wire 16 3 alu_result [15:0] $end
$var wire 1 , clk $end
$var wire 8 5 data [7:0] $end
$var wire 19 # instr [18:0] $end
$var wire 1 : mem_done $end
$var wire 1 - reset_n $end
$var reg 8 . A [7:0] $end
$var reg 8 / B [7:0] $end
$var reg 14 0 addr [13:0] $end
$var reg 14 V decode_addr [13:0] $end
$var reg 1 7 done $end
$var reg 1 9 load $end
$var reg 1 W loadReg $end
$var reg 8 X regA [7:0] $end
$var reg 8 Y regB [7:0] $end
$var reg 16 > result [15:0] $end
$var reg 1 ? start $end
$var reg 1 @ store $end
$var integer 32 Z count $end
$var integer 32 [ fd $end
$var integer 32 \ index $end
$var reg 4 ] op [3:0] $end
$var reg 4 ^ opcode [3:0] $end

$scope begin send_instruction $end
$upscope $end
$upscope $end

$scope module memInt $end
$var wire 14 0 addr [13:0] $end
$var wire 1 , clk $end
$var wire 8 4 datafrommem [7:0] $end
$var wire 1 9 load $end
$var wire 1 ; mem_resp $end
$var wire 1 - reset_n $end
$var wire 16 > result [15:0] $end
$var wire 1 @ store $end
$var reg 14 1 addrout [13:0] $end
$var reg 4 _ counter [3:0] $end
$var reg 8 5 datatoinst [7:0] $end
$var reg 16 6 datatomem [15:0] $end
$var reg 1 : mem_done $end
$var reg 1 = read_req $end
$var reg 1 A write_req $end
$upscope $end

$scope module sram $end
$var wire 14 1 addr [13:0] $end
$var wire 1 , clk $end
$var wire 16 6 datafrommif [15:0] $end
$var wire 1 < preload $end
$var wire 1 = re $end
$var wire 1 - reset_n $end
$var wire 1 A we $end
$var parameter 32 ` ADDR_WIDTH $end
$var parameter 32 a DATA_WIDTH $end
$var reg 8 4 datatomif [7:0] $end
$var reg 1 ; mem_resp $end
$upscope $end
$upscope $end
$upscope $end
$enddefinitions $end
#0
$dumpvars
bz "
x!
0,
0-
02
08
x<
bx B
bx 3
0E
0H
0I
0J
0K
0L
bx M
bx N
xO
bx P
bx Q
bx C
0F
0R
0S
0T
0U
bx D
0G
bx .
bx /
bx 0
bx V
x7
x9
xW
bx X
bx Y
bx >
x?
x@
b0 Z
b0 [
b0 \
bx ]
bx ^
bx 1
bx _
bx 5
bx 6
x:
x=
xA
b1110 `
b10000 a
bx 4
x;
bx #
bx $
b0 %
b0 &
0'
0(
1)
0*
bx +
$end
#10
1'
1,
b0 D
b0 C
b0 Q
b0 P
b0 N
b0 M
0?
0@
09
b0 Y
b0 X
b0 _
0:
0=
0A
b0 6
b0 1
b0 5
07
0!
b0 3
#20
0'
0,
#30
1'
1,
#40
0'
0,
1(
1-
b1000000000000010110 +
#50
1'
1,
bx D
bx N
bx M
1?
b0 /
b0 .
1I
1K
bx 3
1U
#60
0'
0,
b1000000000000010110 #
0)
b1011 V
0W
b1000 ^
b1000000000000010011 +
#70
1'
1,
19
b1011 0
b0 N
b0 M
#80
0'
0,
#90
1'
1,
b1 _
b1011 1
#100
0'
0,
#110
1'
1,
b10 _
1=
#120
0'
0,
#130
1'
1,
b11 _
b1011 4
1;
#140
0'
0,
#150
1'
1,
b100 _
0;
0=
b1011 5
#160
0'
0,
#170
1'
1,
b101 _
#180
0'
0,
#190
1'
1,
b110 _
#200
0'
0,
#210
1'
1,
b111 _
#220
0'
0,
#230
1'
1,
b1000 _
#240
0'
0,
#250
1'
1,
b1001 _
#260
0'
0,
#270
1'
1,
b1010 _
b0 _
1:
17
1!
#280
0'
0,
#290
1'
1,
b1 _
09
b1011 X
0:
07
0!
b1000000000000010011 #
b1001 V
1W
b11111111101110111 +
#300
0'
0,
#310
1'
1,
19
b1001 0
#320
0'
0,
#330
1'
1,
b10 _
1=
b1001 1
#340
0'
0,
#350
1'
1,
b11 _
b1001 4
1;
#360
0'
0,
#370
1'
1,
b100 _
0;
0=
b1001 5
#380
0'
0,
#390
1'
1,
b101 _
#400
0'
0,
#410
1'
1,
b110 _
#420
0'
0,
#430
1'
1,
b111 _
#440
0'
0,
#450
1'
1,
b1000 _
#460
0'
0,
#470
1'
1,
b1001 _
#480
0'
0,
#490
1'
1,
b1010 _
b0 _
1:
17
1!
#500
0'
0,
#510
1'
1,
b1 _
09
b1001 Y
0:
07
0!
b11111111101110111 #
b11111110111011 V
b11 ^
b1001000000000001110 +
#520
0'
0,
#530
1'
1,
b1001 /
b1011 .
b11 ]
b11 B
0O
#540
0'
0,
#550
1'
1,
1G
1E
12
17
1!
b10 D
b1001 N
b1011 M
b10 3
#560
0'
0,
#570
1'
1,
0?
0I
0K
0U
#580
0'
0,
#590
1'
1,
0G
0E
02
07
0!
b1001000000000001110 #
b111 V
0W
b1001 ^
#600
0'
0,
#610
1'
1,
1@
b10 >
b111 0
#620
0'
0,
#630
1'
1,
b10 _
1A
b10 6
b111 1
#640
0'
0,
#650
1'
1,
b11 _
1;
#660
0'
0,
#670
1'
1,
b100 _
0;
0A
#680
0'
0,
#690
1'
1,
b101 _
#700
0'
0,
#710
1'
1,
b110 _
#720
0'
0,
#730
1'
1,
b111 _
#740
0'
0,
#750
1'
1,
b1000 _
#760
0'
0,
#770
1'
1,
b1001 _
#780
0'
0,
#790
1'
1,
b1010 _
b0 _
1:
17
1!
#800
0'
0,
#810
1'
1,
b1 _
0@
b1001 X
0:
07
0!
#820
0'
0,
#830
1'
1,
1@
#840
0'
0,
#850
1'
1,
b10 _
1A
#860
0'
0,
#870
1'
1,
b11 _
1;
#880
0'
0,
#890
1'
1,
b100 _
0;
0A
#900
0'
0,
#910
1'
1,
b101 _
#920
0'
0,
#930
1'
1,
b110 _
#940
0'
0,
#950
1'
1,
b111 _
#960
0'
0,
#970
1'
1,
b1000 _
#980
0'
0,
#990
1'
1,
b1001 _
#1000
0'
0,
#1010
1'
1,
b1010 _
b0 _
1:
17
1!
#1020
0'
0,
#1030
1'
1,
b1 _
0@
0:
07
0!
#1040
0'
0,
#1050
1'
1,
1@
#1060
0'
0,
#1070
1'
1,
b10 _
1A
#1080
0'
0,
#1090
1'
1,
b11 _
1;
#1100
0'
0,
#1110
1'
1,
b100 _
0;
0A
#1120
0'
0,
#1130
1'
1,
b101 _
#1140
0'
0,
#1150
1'
1,
b110 _
#1160
0'
0,
#1170
1'
1,
b111 _
#1180
0'
0,
#1190
1'
1,
b1000 _
#1200
0'
0,
#1210
1'
1,
b1001 _
#1220
0'
0,
#1230
1'
1,
b1010 _
b0 _
1:
17
1!
#1240
0'
0,
#1250
1'
1,
b1 _
0@
0:
07
0!
#1260
0'
0,
#1270
1'
1,
1@
#1280
0'
0,
#1290
1'
1,
b10 _
1A
#1300
0'
0,
#1310
1'
1,
b11 _
1;
#1320
0'
0,
#1330
1'
1,
b100 _
0;
0A
#1340
0'
0,
#1350
1'
1,
b101 _
#1360
0'
0,
#1370
1'
1,
b110 _
#1380
0'
0,
#1390
1'
1,
b111 _
#1400
0'
0,
#1410
1'
1,
b1000 _
#1420
0'
0,
#1430
1'
1,
b1001 _
#1440
0'
0,
#1450
1'
1,
b1010 _
b0 _
1:
17
1!
#1460
0'
0,
#1470
1'
1,
b1 _
0@
0:
07
0!
#1480
0'
0,
#1490
1'
1,
1@
#1500
0'
0,
#1510
1'
1,
b10 _
1A
#1520
0'
0,
#1530
1'
1,
b11 _
1;
#1540
0'
0,
#1550
1'
1,
b100 _
0;
0A
#1560
0'
0,
#1570
1'
1,
b101 _
#1580
0'
0,
#1590
1'
1,
b110 _
#1600
0'
0,
#1610
1'
1,
b111 _
#1620
0'
0,
#1630
1'
1,
b1000 _
#1640
0'
0,
#1650
1'
1,
b1001 _
#1660
0'
0,
#1670
1'
1,
b1010 _
b0 _
1:
17
1!
#1680
0'
0,
#1690
1'
1,
b1 _
0@
0:
07
0!
#1700
0'
0,
#1710
1'
1,
1@
#1720
0'
0,
#1730
1'
1,
b10 _
1A
#1740
0'
0,
#1750
1'
1,
b11 _
1;
#1760
0'
0,
#1770
1'
1,
b100 _
0;
0A
#1780
0'
0,
#1790
1'
1,
b101 _
#1800
0'
0,
#1810
1'
1,
b110 _
#1820
0'
0,
#1830
1'
1,
b111 _
#1840
0'
0,
#1850
1'
1,
b1000 _
#1860
0'
0,
#1870
1'
1,
b1001 _
#1880
0'
0,
#1890
1'
1,
b1010 _
b0 _
1:
17
1!
#1900
0'
0,
#1910
1'
1,
b1 _
0@
0:
07
0!
#1920
0'
0,
#1930
1'
1,
1@
#1940
0'
0,
#1950
1'
1,
b10 _
1A
#1960
0'
0,
#1970
1'
1,
b11 _
1;
#1980
0'
0,
#1990
1'
1,
b100 _
0;
0A
#2000
0'
0,
#2010
1'
1,
b101 _
#2020
0'
0,
#2030
1'
1,
b110 _
#2040
0'
0,
#2050
1'
1,
b111 _
#2060
0'
0,
#2070
1'
1,
b1000 _
#2080
0'
0,
#2090
1'
1,
b1001 _
#2100
0'
0,
#2110
1'
1,
b1010 _
b0 _
1:
17
1!
#2120
0'
0,
#2130
1'
1,
b1 _
0@
0:
07
0!
#2140
0'
0,
#2150
1'
1,
1@
#2160
0'
0,
#2170
1'
1,
b10 _
1A
#2180
0'
0,
#2190
1'
1,
b11 _
1;
#2200
0'
0,
#2210
1'
1,
b100 _
0;
0A
#2220
0'
0,
#2230
1'
1,
b101 _
#2240
0'
0,
#2250
1'
1,
b110 _
#2260
0'
0,
#2270
1'
1,
b111 _
#2280
0'
0,
#2290
1'
1,
b1000 _
#2300
0'
0,
#2310
1'
1,
b1001 _
#2320
0'
0,
#2330
1'
1,
b1010 _
b0 _
1:
17
1!
#2340
0'
0,
#2350
1'
1,
b1 _
0@
0:
07
0!
#2360
0'
0,
#2370
1'
1,
1@
#2380
0'
0,
#2390
1'
1,
b10 _
1A
#2400
0'
0,
#2410
1'
1,
b11 _
1;
#2420
0'
0,
#2430
1'
1,
b100 _
0;
0A
#2440
0'
0,
#2450
1'
1,
b101 _
#2460
0'
0,
#2470
1'
1,
b110 _
#2480
0'
0,
#2490
1'
1,
b111 _
#2500
0'
0,
#2510
1'
1,
b1000 _
#2520
0'
0,
#2530
1'
1,
b1001 _
#2540
0'
0,
#2550
1'
1,
b1010 _
b0 _
1:
17
1!
#2560
0'
0,
#2570
1'
1,
b1 _
0@
0:
07
0!
#2580
0'
0,
#2590
1'
1,
1@
#2600
0'
0,
#2610
1'
1,
b10 _
1A
#2620
0'
0,
#2630
1'
1,
b11 _
1;
#2640
0'
0,
#2650
1'
1,
b100 _
0;
0A
#2660
0'
0,
#2670
1'
1,
b101 _
#2680
0'
0,
#2690
1'
1,
b110 _
#2700
0'
0,
#2710
1'
1,
b111 _
#2720
0'
0,
#2730
1'
1,
b1000 _
#2740
0'
0,
#2750
1'
1,
b1001 _
#2760
0'
0,
#2770
1'
1,
b1010 _
b0 _
1:
17
1!
#2780
0'
0,
#2790
1'
1,
b1 _
0@
0:
07
0!
#2800
0'
0,
#2810
1'
1,
1@
#2820
0'
0,
#2830
1'
1,
b10 _
1A
#2840
0'
0,
#2850
1'
1,
b11 _
1;
#2860
0'
0,
#2870
1'
1,
b100 _
0;
0A
#2880
0'
0,
#2890
1'
1,
b101 _
#2900
0'
0,
#2910
1'
1,
b110 _
#2920
0'
0,
#2930
1'
1,
b111 _
#2940
0'
0,
#2950
1'
1,
b1000 _
#2960
0'
0,
#2970
1'
1,
b1001 _
#2980
0'
0,
#2990
1'
1,
b1010 _
b0 _
1:
17
1!
#3000
0'
0,
#3010
1'
1,
b1 _
0@
0:
07
0!
#3020
0'
0,
#3030
1'
1,
1@
#3040
0'
0,
#3050
1'
1,
b10 _
1A
#3060
0'
0,
#3070
1'
1,
b11 _
1;
#3080
0'
0,
#3090
1'
1,
b100 _
0;
0A
#3100
0'
0,
#3110
1'
1,
b101 _
#3120
0'
0,
#3130
1'
1,
b110 _
#3140
0'
0,
#3150
1'
1,
b111 _
#3160
0'
0,
#3170
1'
1,
b1000 _
#3180
0'
0,
#3190
1'
1,
b1001 _
#3200
0'
0,
#3210
1'
1,
b1010 _
b0 _
1:
17
1!
#3220
0'
0,
#3230
1'
1,
b1 _
0@
0:
07
0!
#3240
0'
0,
#3250
1'
1,
1@
#3260
0'
0,
#3270
1'
1,
b10 _
1A
#3280
0'
0,
#3290
1'
1,
b11 _
1;
#3300
0'
0,
#3310
1'
1,
b100 _
0;
0A
#3320
0'
0,
#3330
1'
1,
b101 _
#3340
0'
0,
#3350
1'
1,
b110 _
#3360
0'
0,
#3370
1'
1,
b111 _
#3380
0'
0,
#3390
1'
1,
b1000 _
#3400
0'
0,
#3410
1'
1,
b1001 _
#3420
0'
0,
#3430
1'
1,
b1010 _
b0 _
1:
17
1!
#3440
0'
0,
#3450
1'
1,
b1 _
0@
0:
07
0!
#3460
0'
0,
#3470
1'
1,
1@
#3480
0'
0,
#3490
1'
1,
b10 _
1A
#3500
0'
0,
#3510
1'
1,
b11 _
1;
#3520
0'
0,
#3530
1'
1,
b100 _
0;
0A
#3540
0'
0,
#3550
1'
1,
b101 _
#3560
0'
0,
#3570
1'
1,
b110 _
#3580
0'
0,
#3590
1'
1,
b111 _
#3600
0'
0,
#3610
1'
1,
b1000 _
#3620
0'
0,
#3630
1'
1,
b1001 _
#3640
0'
0,
#3650
1'
1,
b1010 _
b0 _
1:
17
1!
#3660
0'
0,
#3670
1'
1,
b1 _
0@
0:
07
0!
#3680
0'
0,
#3690
1'
1,
1@
#3700
0'
0,
#3710
1'
1,
b10 _
1A
#3720
0'
0,
#3730
1'
1,
b11 _
1;
#3740
0'
0,
#3750
1'
1,
b100 _
0;
0A
#3760
0'
0,
#3770
1'
1,
b101 _
#3780
0'
0,
#3790
1'
1,
b110 _
#3800
0'
0,
#3810
1'
1,
b111 _
#3820
0'
0,
#3830
1'
1,
b1000 _
#3840
0'
0,
#3850
1'
1,
b1001 _
#3860
0'
0,
#3870
1'
1,
b1010 _
b0 _
1:
17
1!
#3880
0'
0,
#3890
1'
1,
b1 _
0@
0:
07
0!
#3900
0'
0,
#3910
1'
1,
1@
#3920
0'
0,
#3930
1'
1,
b10 _
1A
#3940
0'
0,
#3950
1'
1,
b11 _
1;
#3960
0'
0,
#3970
1'
1,
b100 _
0;
0A
#3980
0'
0,
#3990
1'
1,
b101 _
#4000
0'
0,
#4010
1'
1,
b110 _
#4020
0'
0,
#4030
1'
1,
b111 _
#4040
0'
0,
#4050
1'
1,
b1000 _
#4060
0'
0,
#4070
1'
1,
b1001 _
#4080
0'
0,
#4090
1'
1,
b1010 _
b0 _
1:
17
1!
#4100
0'
0,
#4110
1'
1,
b1 _
0@
0:
07
0!
#4120
0'
0,
#4130
1'
1,
1@
#4140
0'
0,
#4150
1'
1,
b10 _
1A
#4160
0'
0,
#4170
1'
1,
b11 _
1;
#4180
0'
0,
#4190
1'
1,
b100 _
0;
0A
#4200
0'
0,
#4210
1'
1,
b101 _
#4220
0'
0,
#4230
1'
1,
b110 _
#4240
0'
0,
#4250
1'
1,
b111 _
#4260
0'
0,
#4270
1'
1,
b1000 _
#4280
0'
0,
#4290
1'
1,
b1001 _
#4300
0'
0,
#4310
1'
1,
b1010 _
b0 _
1:
17
1!
#4320
0'
0,
#4330
1'
1,
b1 _
0@
0:
07
0!
#4340
0'
0,
#4350
1'
1,
1@
#4360
0'
0,
#4370
1'
1,
b10 _
1A
#4380
0'
0,
#4390
1'
1,
b11 _
1;
#4400
0'
0,
#4410
1'
1,
b100 _
0;
0A
#4420
0'
0,
#4430
1'
1,
b101 _
#4440
0'
0,
#4450
1'
1,
b110 _
#4460
0'
0,
#4470
1'
1,
b111 _
#4480
0'
0,
#4490
1'
1,
b1000 _
#4500
0'
0,
#4510
1'
1,
b1001 _
#4520
0'
0,
#4530
1'
1,
b1010 _
b0 _
1:
17
1!
#4540
0'
0,
#4550
1'
1,
b1 _
0@
0:
07
0!
#4560
0'
0,
#4570
1'
1,
1@
#4580
0'
0,
#4590
1'
1,
b10 _
1A
#4600
0'
0,
#4610
1'
1,
b11 _
1;
#4620
0'
0,
#4630
1'
1,
b100 _
0;
0A
#4640
0'
0,
#4650
1'
1,
b101 _
#4660
0'
0,
#4670
1'
1,
b110 _
#4680
0'
0,
#4690
1'
1,
b111 _
#4700
0'
0,
#4710
1'
1,
b1000 _
#4720
0'
0,
#4730
1'
1,
b1001 _
#4740
0'
0,
#4750
1'
1,
b1010 _
b0 _
1:
17
1!
#4760
0'
0,
#4770
1'
1,
b1 _
0@
0:
07
0!
#4780
0'
0,
#4790
1'
1,
1@
#4800
0'
0,
#4810
1'
1,
b10 _
1A
#4820
0'
0,
#4830
1'
1,
b11 _
1;
#4840
0'
0,
#4850
1'
1,
b100 _
0;
0A
#4860
0'
0,
#4870
1'
1,
b101 _
#4880
0'
0,
#4890
1'
1,
b110 _
#4900
0'
0,
#4910
1'
1,
b111 _
#4920
0'
0,
#4930
1'
1,
b1000 _
#4940
0'
0,
#4950
1'
1,
b1001 _
#4960
0'
0,
#4970
1'
1,
b1010 _
b0 _
1:
17
1!
#4980
0'
0,
#4990
1'
1,
b1 _
0@
0:
07
0!
#5000
0'
0,
#5010
1'
1,
1@
#5020
0'
0,
#5030
1'
1,
b10 _
1A
#5040
0'
0,
#5050
1'
1,
b11 _
1;
#5060
0'
0,
#5070
1'
1,
b100 _
0;
0A
#5080
0'
0,
#5090
1'
1,
b101 _
#5100
0'
0,
#5110
1'
1,
b110 _
#5120
0'
0,
#5130
1'
1,
b111 _
#5140
0'
0,
#5150
1'
1,
b1000 _
#5160
0'
0,
#5170
1'
1,
b1001 _
#5180
0'
0,
#5190
1'
1,
b1010 _
b0 _
1:
17
1!
#5200
0'
0,
#5210
1'
1,
b1 _
0@
0:
07
0!
#5220
0'
0,
#5230
1'
1,
1@
#5240
0'
0,
#5250
1'
1,
b10 _
1A
#5260
0'
0,
#5270
1'
1,
b11 _
1;
#5280
0'
0,
#5290
1'
1,
b100 _
0;
0A
#5300
0'
0,
#5310
1'
1,
b101 _
#5320
0'
0,
#5330
1'
1,
b110 _
#5340
0'
0,
#5350
1'
1,
b111 _
#5360
0'
0,
#5370
1'
1,
b1000 _
#5380
0'
0,
#5390
1'
1,
b1001 _
#5400
0'
0,
#5410
1'
1,
b1010 _
b0 _
1:
17
1!
#5420
0'
0,
#5430
1'
1,
b1 _
0@
0:
07
0!
#5440
0'
0,
#5450
1'
1,
1@
#5460
0'
0,
#5470
1'
1,
b10 _
1A
#5480
0'
0,
#5490
1'
1,
b11 _
1;
#5500
0'
0,
#5510
1'
1,
b100 _
0;
0A
#5520
0'
0,
#5530
1'
1,
b101 _
#5540
0'
0,
#5550
1'
1,
b110 _
#5560
0'
0,
#5570
1'
1,
b111 _
#5580
0'
0,
#5590
1'
1,
b1000 _
#5600
0'
0,
#5610
1'
1,
b1001 _
#5620
0'
0,
#5630
1'
1,
b1010 _
b0 _
1:
17
1!
#5640
0'
0,
#5650
1'
1,
b1 _
0@
0:
07
0!
#5660
0'
0,
#5670
1'
1,
1@
#5680
0'
0,
#5690
1'
1,
b10 _
1A
#5700
0'
0,
#5710
1'
1,
b11 _
1;
#5720
0'
0,
#5730
1'
1,
b100 _
0;
0A
#5740
0'
0,
#5750
1'
1,
b101 _
#5760
0'
0,
#5770
1'
1,
b110 _
#5780
0'
0,
#5790
1'
1,
b111 _
#5800
0'
0,
#5810
1'
1,
b1000 _
#5820
0'
0,
#5830
1'
1,
b1001 _
#5840
0'
0,
#5850
1'
1,
b1010 _
b0 _
1:
17
1!
#5860
0'
0,
#5870
1'
1,
b1 _
0@
0:
07
0!
#5880
0'
0,
#5890
1'
1,
1@
#5900
0'
0,
#5910
1'
1,
b10 _
1A
#5920
0'
0,
#5930
1'
1,
b11 _
1;
#5940
0'
0,
#5950
1'
1,
b100 _
0;
0A
#5960
0'
0,
#5970
1'
1,
b101 _
#5980
0'
0,
#5990
1'
1,
b110 _
#6000
0'
0,
#6010
1'
1,
b111 _
#6020
0'
0,
#6030
1'
1,
b1000 _
#6040
0'
0,
#6050
1'
1,
b1001 _
#6060
0'
0,
#6070
1'
1,
b1010 _
b0 _
1:
17
1!
#6080
0'
0,
#6090
1'
1,
b1 _
0@
0:
07
0!
#6100
0'
0,
#6110
1'
1,
1@
#6120
0'
0,
#6130
1'
1,
b10 _
1A
#6140
0'
0,
#6150
1'
1,
b11 _
1;
#6160
0'
0,
#6170
1'
1,
b100 _
0;
0A
#6180
0'
0,
#6190
1'
1,
b101 _
#6200
0'
0,
#6210
1'
1,
b110 _
#6220
0'
0,
#6230
1'
1,
b111 _
#6240
0'
0,
#6250
1'
1,
b1000 _
#6260
0'
0,
#6270
1'
1,
b1001 _
#6280
0'
0,
#6290
1'
1,
b1010 _
b0 _
1:
17
1!
#6300
0'
0,
#6310
1'
1,
b1 _
0@
0:
07
0!
#6320
0'
0,
#6330
1'
1,
1@
#6340
0'
0,
#6350
1'
1,
b10 _
1A
#6360
0'
0,
#6370
1'
1,
b11 _
1;
#6380
0'
0,
#6390
1'
1,
b100 _
0;
0A
#6400
0'
0,
#6410
1'
1,
b101 _
#6420
0'
0,
#6430
1'
1,
b110 _
#6440
0'
0,
#6450
1'
1,
b111 _
#6460
0'
0,
#6470
1'
1,
b1000 _
#6480
0'
0,
#6490
1'
1,
b1001 _
#6500
0'
0,
#6510
1'
1,
b1010 _
b0 _
1:
17
1!
#6520
0'
0,
#6530
1'
1,
b1 _
0@
0:
07
0!
#6540
0'
0,
#6550
1'
1,
1@
#6560
0'
0,
#6570
1'
1,
b10 _
1A
#6580
0'
0,
#6590
1'
1,
b11 _
1;
#6600
0'
0,
#6610
1'
1,
b100 _
0;
0A
#6620
0'
0,
#6630
1'
1,
b101 _
#6640
0'
0,
#6650
1'
1,
b110 _
#6660
0'
0,
#6670
1'
1,
b111 _
#6680
0'
0,
#6690
1'
1,
b1000 _
#6700
0'
0,
#6710
1'
1,
b1001 _
#6720
0'
0,
#6730
1'
1,
b1010 _
b0 _
1:
17
1!
#6740
0'
0,
#6750
1'
1,
b1 _
0@
0:
07
0!
#6760
0'
0,
#6770
1'
1,
1@
#6780
0'
0,
#6790
1'
1,
b10 _
1A
#6800
0'
0,
#6810
1'
1,
b11 _
1;
#6820
0'
0,
#6830
1'
1,
b100 _
0;
0A
#6840
0'
0,
#6850
1'
1,
b101 _
#6860
0'
0,
#6870
1'
1,
b110 _
#6880
0'
0,
#6890
1'
1,
b111 _
#6900
0'
0,
#6910
1'
1,
b1000 _
#6920
0'
0,
#6930
1'
1,
b1001 _
#6940
0'
0,
#6950
1'
1,
b1010 _
b0 _
1:
17
1!
#6960
0'
0,
#6970
1'
1,
b1 _
0@
0:
07
0!
#6980
0'
0,
#6990
1'
1,
1@
#7000
0'
0,
#7010
1'
1,
b10 _
1A
#7020
0'
0,
#7030
1'
1,
b11 _
1;
#7040
0'
0,
#7050
1'
1,
b100 _
0;
0A
#7060
0'
0,
#7070
1'
1,
b101 _
#7080
0'
0,
#7090
1'
1,
b110 _
#7100
0'
0,
#7110
1'
1,
b111 _
#7120
0'
0,
#7130
1'
1,
b1000 _
#7140
0'
0,
#7150
1'
1,
b1001 _
#7160
0'
0,
#7170
1'
1,
b1010 _
b0 _
1:
17
1!
#7180
0'
0,
#7190
1'
1,
b1 _
0@
0:
07
0!
#7200
0'
0,
#7210
1'
1,
1@
#7220
0'
0,
#7230
1'
1,
b10 _
1A
#7240
0'
0,
#7250
1'
1,
b11 _
1;
#7260
0'
0,
#7270
1'
1,
b100 _
0;
0A
#7280
0'
0,
#7290
1'
1,
b101 _
#7300
0'
0,
#7310
1'
1,
b110 _
#7320
0'
0,
#7330
1'
1,
b111 _
#7340
0'
0,
#7350
1'
1,
b1000 _
#7360
0'
0,
#7370
1'
1,
b1001 _
#7380
0'
0,
#7390
1'
1,
b1010 _
b0 _
1:
17
1!
#7400
0'
0,
#7410
1'
1,
b1 _
0@
0:
07
0!
#7420
0'
0,
#7430
1'
1,
1@
#7440
0'
0,
#7450
1'
1,
b10 _
1A
#7460
0'
0,
#7470
1'
1,
b11 _
1;
#7480
0'
0,
#7490
1'
1,
b100 _
0;
0A
#7500
0'
0,
#7510
1'
1,
b101 _
#7520
0'
0,
#7530
1'
1,
b110 _
#7540
0'
0,
#7550
1'
1,
b111 _
#7560
0'
0,
#7570
1'
1,
b1000 _
#7580
0'
0,
#7590
1'
1,
b1001 _
#7600
0'
0,
#7610
1'
1,
b1010 _
b0 _
1:
17
1!
#7620
0'
0,
#7630
1'
1,
b1 _
0@
0:
07
0!
#7640
0'
0,
#7650
1'
1,
1@
#7660
0'
0,
#7670
1'
1,
b10 _
1A
#7680
0'
0,
#7690
1'
1,
b11 _
1;
#7700
0'
0,
#7710
1'
1,
b100 _
0;
0A
#7720
0'
0,
#7730
1'
1,
b101 _
#7740
0'
0,
#7750
1'
1,
b110 _
#7760
0'
0,
#7770
1'
1,
b111 _
#7780
0'
0,
#7790
1'
1,
b1000 _
#7800
0'
0,
#7810
1'
1,
b1001 _
#7820
0'
0,
#7830
1'
1,
b1010 _
b0 _
1:
17
1!
#7840
0'
0,
#7850
1'
1,
b1 _
0@
0:
07
0!
#7860
0'
0,
#7870
1'
1,
1@
#7880
0'
0,
#7890
1'
1,
b10 _
1A
#7900
0'
0,
#7910
1'
1,
b11 _
1;
#7920
0'
0,
#7930
1'
1,
b100 _
0;
0A
#7940
0'
0,
#7950
1'
1,
b101 _
#7960
0'
0,
#7970
1'
1,
b110 _
#7980
0'
0,
#7990
1'
1,
b111 _
#8000
0'
0,
#8010
1'
1,
b1000 _
#8020
0'
0,
#8030
1'
1,
b1001 _
#8040
0'
0,
#8050
1'
1,
b1010 _
b0 _
1:
17
1!
#8060
0'
0,
#8070
1'
1,
b1 _
0@
0:
07
0!
#8080
0'
0,
#8090
1'
1,
1@
#8100
0'
0,
#8110
1'
1,
b10 _
1A
#8120
0'
0,
#8130
1'
1,
b11 _
1;
#8140
0'
0,
#8150
1'
1,
b100 _
0;
0A
#8160
0'
0,
#8170
1'
1,
b101 _
#8180
0'
0,
#8190
1'
1,
b110 _
#8200
0'
0,
#8210
1'
1,
b111 _
#8220
0'
0,
#8230
1'
1,
b1000 _
#8240
0'
0,
#8250
1'
1,
b1001 _
#8260
0'
0,
#8270
1'
1,
b1010 _
b0 _
1:
17
1!
#8280
0'
0,
#8290
1'
1,
b1 _
0@
0:
07
0!
#8300
0'
0,
#8310
1'
1,
1@
#8320
0'
0,
#8330
1'
1,
b10 _
1A
#8340
0'
0,
#8350
1'
1,
b11 _
1;
#8360
0'
0,
#8370
1'
1,
b100 _
0;
0A
#8380
0'
0,
#8390
1'
1,
b101 _
#8400
0'
0,
#8410
1'
1,
b110 _
#8420
0'
0,
#8430
1'
1,
b111 _
#8440
0'
0,
#8450
1'
1,
b1000 _
#8460
0'
0,
#8470
1'
1,
b1001 _
#8480
0'
0,
#8490
1'
1,
b1010 _
b0 _
1:
17
1!
#8500
0'
0,
#8510
1'
1,
b1 _
0@
0:
07
0!
#8520
0'
0,
#8530
1'
1,
1@
