top_single.vcd
$date
	Mon Mar  6 19:15:40 2023
$end
$version
	QuestaSim Version 2019.2_1
$end
$timescale
	1ns
$end

$scope module top_single $end

$scope module vif $end
$var wire 1 ! done $end
$var wire 1 " op [2] $end
$var wire 1 # op [1] $end
$var wire 1 $ op [0] $end
$var reg 19 % instr [18:0] $end
$var reg 16 & result [15:0] $end
$var integer 8 ' A $end
$var integer 8 ( B $end
$var reg 1 ) clk $end
$var reg 1 * reset_n $end
$var reg 1 + reset_start $end
$var reg 1 , start $end

$scope task get_an_input $end
$upscope $end

$scope task get_an_output $end
$upscope $end

$scope task reset_alu $end
$upscope $end

$scope task sample_instruction $end
$upscope $end

$scope task send_instruction $end
$var reg 19 - i_instr [18:0] $end
$upscope $end
$upscope $end

$scope module DUT $end
$var wire 1 . clk $end
$var wire 19 % instr [18:0] $end
$var wire 1 / reset_n $end
$var reg 8 0 A [7:0] $end
$var reg 8 0 A_in [7:0] $end
$var reg 8 1 B [7:0] $end
$var reg 8 1 B_in [7:0] $end
$var reg 14 2 addr [13:0] $end
$var reg 14 3 addrout [13:0] $end
$var reg 1 4 alu_done $end
$var reg 16 5 alu_result [15:0] $end
$var reg 8 6 datafrommem [7:0] $end
$var reg 8 7 datatoinst [7:0] $end
$var reg 16 8 datatomem [15:0] $end
$var reg 1 9 done $end
$var reg 1 : error $end
$var reg 1 ; load $end
$var reg 1 < mem_done $end
$var reg 1 = mem_resp $end
$var reg 1 > preload $end
$var reg 1 ? read_req $end
$var reg 16 @ result [15:0] $end
$var reg 16 @ result_in [15:0] $end
$var reg 1 A start $end
$var reg 1 B store $end
$var reg 1 C write_req $end
$var reg 4 D op [3:0] $end

$scope module alu $end
$var wire 8 0 A [7:0] $end
$var wire 8 1 B [7:0] $end
$var wire 1 . clk $end
$var wire 1 / reset_n $end
$var reg 16 5 result [15:0] $end
$var reg 16 E result_multi [15:0] $end
$var reg 16 F result_single [15:0] $end
$var reg 1 G done $end
$var reg 1 H done_multi $end
$var reg 1 I done_single $end
$var reg 1 J error $end
$var reg 1 K start $end
$var reg 1 L start_multi $end
$var reg 1 M start_single $end
$var wire 4 D op [3:0] $end

$scope module alu_multi $end
$var wire 8 0 A [7:0] $end
$var wire 8 1 B [7:0] $end
$var wire 1 . clk $end
$var wire 1 / reset_n $end
$var wire 1 N start $end
$var reg 8 O a_int [7:0] $end
$var reg 8 P b_int [7:0] $end
$var reg 1 Q is_4cycle $end
$var reg 16 R mult1 [15:0] $end
$var reg 16 S mult2 [15:0] $end
$var reg 16 E result [15:0] $end
$var reg 1 H done $end
$var reg 1 T done1 $end
$var reg 1 U done2 $end
$var reg 1 V done3 $end
$var wire 4 D op [3:0] $end
$upscope $end

$scope module alu_single $end
$var wire 8 0 A [7:0] $end
$var wire 8 1 B [7:0] $end
$var wire 1 . clk $end
$var wire 1 / reset_n $end
$var wire 1 W start $end
$var reg 16 F result [15:0] $end
$var reg 1 I done $end
$var wire 4 D op [3:0] $end
$upscope $end
$upscope $end

$scope module instunit $end
$var wire 1 4 alu_done $end
$var wire 16 5 alu_result [15:0] $end
$var wire 1 . clk $end
$var wire 8 7 data [7:0] $end
$var wire 19 % instr [18:0] $end
$var wire 1 < mem_done $end
$var wire 1 / reset_n $end
$var reg 8 0 A [7:0] $end
$var reg 8 1 B [7:0] $end
$var reg 14 2 addr [13:0] $end
$var reg 14 X decode_addr [13:0] $end
$var reg 1 9 done $end
$var reg 1 ; load $end
$var reg 1 Y loadReg $end
$var reg 8 Z regA [7:0] $end
$var reg 8 [ regB [7:0] $end
$var reg 16 @ result [15:0] $end
$var reg 1 A start $end
$var reg 1 B store $end
$var integer 32 \ count $end
$var integer 32 ] fd $end
$var integer 32 ^ index $end
$var reg 4 _ op [3:0] $end
$var reg 4 ` opcode [3:0] $end

$scope begin send_instruction $end
$upscope $end
$upscope $end

$scope module memInt $end
$var wire 14 2 addr [13:0] $end
$var wire 1 . clk $end
$var wire 8 6 datafrommem [7:0] $end
$var wire 1 ; load $end
$var wire 1 = mem_resp $end
$var wire 1 / reset_n $end
$var wire 16 @ result [15:0] $end
$var wire 1 B store $end
$var reg 14 3 addrout [13:0] $end
$var reg 4 a counter [3:0] $end
$var reg 8 7 datatoinst [7:0] $end
$var reg 16 8 datatomem [15:0] $end
$var reg 1 < mem_done $end
$var reg 1 ? read_req $end
$var reg 1 C write_req $end
$upscope $end

$scope module sram $end
$var wire 14 3 addr [13:0] $end
$var wire 1 . clk $end
$var wire 16 8 datafrommif [15:0] $end
$var wire 1 > preload $end
$var wire 1 ? re $end
$var wire 1 / reset_n $end
$var wire 1 C we $end
$var parameter 32 b ADDR_WIDTH $end
$var parameter 32 c DATA_WIDTH $end
$var reg 8 6 datatomif [7:0] $end
$var reg 1 = mem_resp $end
$upscope $end
$upscope $end
$upscope $end
$enddefinitions $end
#0
$dumpvars
z$
z#
z"
x!
0.
0/
0W
0N
04
0:
x>
bx D
bx 5
0G
0J
0K
0L
0M
bx O
bx P
xQ
bx R
bx S
bx E
0H
0T
0U
0V
bx F
0I
bx 0
bx 1
bx 2
bx X
x9
x;
xY
bx Z
bx [
bx @
xA
xB
b0 \
b0 ]
b0 ^
bx _
bx `
bx 3
bx a
bx 7
bx 8
x<
x?
xC
b1110 b
b10000 c
bx 6
x=
bx %
bx &
b0 '
b0 (
0)
0*
1+
0,
bx -
$end
#10
1)
1.
b0 F
b0 O
b0 P
b0 R
b0 S
b0 E
b0 Z
b0 [
0A
0;
0B
b0 3
0C
0?
b0 7
b0 a
b0 8
0<
09
0!
b0 5
#20
0)
0.
#30
1)
1.
#40
0)
0.
1*
1/
b1000000000000001000 -
#50
1)
1.
bx F
bx O
bx P
b0 0
b0 1
1A
1K
1M
bx 5
1W
#60
0)
0.
b1000000000000001000 %
0+
b1000 `
b100 X
0Y
b1000000000000011000 -
#70
1)
1.
1;
b100 2
b0 O
b0 P
#80
0)
0.
#90
1)
1.
b1 a
b100 3
#100
0)
0.
#110
1)
1.
b10 a
1?
#120
0)
0.
#130
1)
1.
b11 a
b100 6
1=
#140
0)
0.
#150
1)
1.
b100 a
0=
b100 7
0?
#160
0)
0.
#170
1)
1.
b101 a
#180
0)
0.
#190
1)
1.
b110 a
#200
0)
0.
#210
1)
1.
b111 a
#220
0)
0.
#230
1)
1.
b1000 a
#240
0)
0.
#250
1)
1.
b1001 a
#260
0)
0.
#270
1)
1.
b1010 a
b0 a
1<
19
1!
#280
0)
0.
#290
1)
1.
b1 a
b100 Z
0;
0<
09
0!
b1000000000000011000 %
b1100 X
b1010000001011010110 -
#300
0)
0.
#310
1)
1.
1;
b1100 2
#320
0)
0.
#330
1)
1.
b10 a
b1100 3
1?
#340
0)
0.
#350
1)
1.
b11 a
b1100 6
1=
#360
0)
0.
#370
1)
1.
b100 a
0=
b1100 7
0?
#380
0)
0.
#390
1)
1.
b101 a
#400
0)
0.
#410
1)
1.
b110 a
#420
0)
0.
#430
1)
1.
b111 a
#440
0)
0.
#450
1)
1.
b1000 a
#460
0)
0.
#470
1)
1.
b1001 a
#480
0)
0.
#490
1)
1.
b1010 a
b0 a
1<
19
1!
#500
0)
0.
#510
1)
1.
b1 a
b1100 Z
0;
0<
09
0!
b1010000001011010110 %
b1010 `
b101101011 X
b1001000000000011100 -
#520
0)
0.
#530
1)
1.
b1010 _
b1100 0
b1100 '
b1010 D
0Q
#540
0)
0.
#550
1)
1.
1I
1G
14
19
1!
b1100000 F
b1100 O
b1100000 5
#560
0)
0.
#570
1)
1.
0A
0K
0M
0W
#580
0)
0.
#590
1)
1.
0I
0G
04
09
0!
b1001000000000011100 %
b1001 `
b1110 X
#600
0)
0.
#610
1)
1.
1B
b1110 2
b1100000 @
b1100000 &
#620
0)
0.
#630
1)
1.
b10 a
b1110 3
b1100000 8
1C
#640
0)
0.
#650
1)
1.
b11 a
1=
#660
0)
0.
#670
1)
1.
b100 a
0=
0C
#680
0)
0.
#690
1)
1.
b101 a
#700
0)
0.
#710
1)
1.
b110 a
#720
0)
0.
#730
1)
1.
b111 a
#740
0)
0.
#750
1)
1.
b1000 a
#760
0)
0.
#770
1)
1.
b1001 a
#780
0)
0.
#790
1)
1.
b1010 a
b0 a
1<
19
1!
#800
0)
0.
#810
1)
1.
b1 a
0B
0<
09
0!
#820
0)
0.
#830
1)
1.
1B
#840
0)
0.
#850
1)
1.
b10 a
1C
#860
0)
0.
#870
1)
1.
b11 a
1=
#880
0)
0.
#890
1)
1.
b100 a
0=
0C
#900
0)
0.
#910
1)
1.
b101 a
#920
0)
0.
#930
1)
1.
b110 a
#940
0)
0.
#950
1)
1.
b111 a
#960
0)
0.
#970
1)
1.
b1000 a
#980
0)
0.
#990
1)
1.
b1001 a
#1000
0)
0.
#1010
1)
1.
b1010 a
b0 a
1<
19
1!
#1020
0)
0.
#1030
1)
1.
b1 a
0B
0<
09
0!
#1040
0)
0.
#1050
1)
1.
1B
#1060
0)
0.
#1070
1)
1.
b10 a
1C
#1080
0)
0.
#1090
1)
1.
b11 a
1=
#1100
0)
0.
#1110
1)
1.
b100 a
0=
0C
#1120
0)
0.
#1130
1)
1.
b101 a
#1140
0)
0.
#1150
1)
1.
b110 a
#1160
0)
0.
#1170
1)
1.
b111 a
#1180
0)
0.
#1190
1)
1.
b1000 a
#1200
0)
0.
#1210
1)
1.
b1001 a
#1220
0)
0.
#1230
1)
1.
b1010 a
b0 a
1<
19
1!
#1240
0)
0.
#1250
1)
1.
b1 a
0B
0<
09
0!
#1260
0)
0.
#1270
1)
1.
1B
#1280
0)
0.
#1290
1)
1.
b10 a
1C
#1300
0)
0.
#1310
1)
1.
b11 a
1=
#1320
0)
0.
#1330
1)
1.
b100 a
0=
0C
#1340
0)
0.
#1350
1)
1.
b101 a
#1360
0)
0.
#1370
1)
1.
b110 a
#1380
0)
0.
#1390
1)
1.
b111 a
#1400
0)
0.
#1410
1)
1.
b1000 a
#1420
0)
0.
#1430
1)
1.
b1001 a
#1440
0)
0.
#1450
1)
1.
b1010 a
b0 a
1<
19
1!
#1460
0)
0.
#1470
1)
1.
b1 a
0B
0<
09
0!
#1480
0)
0.
#1490
1)
1.
1B
#1500
0)
0.
#1510
1)
1.
b10 a
1C
#1520
0)
0.
#1530
1)
1.
b11 a
1=
#1540
0)
0.
#1550
1)
1.
b100 a
0=
0C
#1560
0)
0.
#1570
1)
1.
b101 a
#1580
0)
0.
#1590
1)
1.
b110 a
#1600
0)
0.
#1610
1)
1.
b111 a
#1620
0)
0.
#1630
1)
1.
b1000 a
#1640
0)
0.
#1650
1)
1.
b1001 a
#1660
0)
0.
#1670
1)
1.
b1010 a
b0 a
1<
19
1!
#1680
0)
0.
#1690
1)
1.
b1 a
0B
0<
09
0!
#1700
0)
0.
#1710
1)
1.
1B
#1720
0)
0.
#1730
1)
1.
b10 a
1C
#1740
0)
0.
#1750
1)
1.
b11 a
1=
#1760
0)
0.
#1770
1)
1.
b100 a
0=
0C
#1780
0)
0.
#1790
1)
1.
b101 a
#1800
0)
0.
#1810
1)
1.
b110 a
#1820
0)
0.
#1830
1)
1.
b111 a
#1840
0)
0.
#1850
1)
1.
b1000 a
#1860
0)
0.
#1870
1)
1.
b1001 a
#1880
0)
0.
#1890
1)
1.
b1010 a
b0 a
1<
19
1!
#1900
0)
0.
#1910
1)
1.
b1 a
0B
0<
09
0!
#1920
0)
0.
#1930
1)
1.
1B
#1940
0)
0.
#1950
1)
1.
b10 a
1C
#1960
0)
0.
#1970
1)
1.
b11 a
1=
#1980
0)
0.
#1990
1)
1.
b100 a
0=
0C
#2000
0)
0.
#2010
1)
1.
b101 a
#2020
0)
0.
#2030
1)
1.
b110 a
#2040
0)
0.
#2050
1)
1.
b111 a
#2060
0)
0.
#2070
1)
1.
b1000 a
#2080
0)
0.
#2090
1)
1.
b1001 a
#2100
0)
0.
#2110
1)
1.
b1010 a
b0 a
1<
19
1!
#2120
0)
0.
#2130
1)
1.
b1 a
0B
0<
09
0!
#2140
0)
0.
#2150
1)
1.
1B
#2160
0)
0.
#2170
1)
1.
b10 a
1C
#2180
0)
0.
#2190
1)
1.
b11 a
1=
#2200
0)
0.
#2210
1)
1.
b100 a
0=
0C
#2220
0)
0.
#2230
1)
1.
b101 a
#2240
0)
0.
#2250
1)
1.
b110 a
#2260
0)
0.
#2270
1)
1.
b111 a
#2280
0)
0.
#2290
1)
1.
b1000 a
#2300
0)
0.
#2310
1)
1.
b1001 a
#2320
0)
0.
#2330
1)
1.
b1010 a
b0 a
1<
19
1!
#2340
0)
0.
#2350
1)
1.
b1 a
0B
0<
09
0!
#2360
0)
0.
#2370
1)
1.
1B
#2380
0)
0.
#2390
1)
1.
b10 a
1C
#2400
0)
0.
#2410
1)
1.
b11 a
1=
#2420
0)
0.
#2430
1)
1.
b100 a
0=
0C
#2440
0)
0.
#2450
1)
1.
b101 a
#2460
0)
0.
#2470
1)
1.
b110 a
#2480
0)
0.
#2490
1)
1.
b111 a
#2500
0)
0.
#2510
1)
1.
b1000 a
#2520
0)
0.
#2530
1)
1.
b1001 a
#2540
0)
0.
#2550
1)
1.
b1010 a
b0 a
1<
19
1!
#2560
0)
0.
#2570
1)
1.
b1 a
0B
0<
09
0!
#2580
0)
0.
#2590
1)
1.
1B
#2600
0)
0.
#2610
1)
1.
b10 a
1C
#2620
0)
0.
#2630
1)
1.
b11 a
1=
#2640
0)
0.
#2650
1)
1.
b100 a
0=
0C
#2660
0)
0.
#2670
1)
1.
b101 a
#2680
0)
0.
#2690
1)
1.
b110 a
#2700
0)
0.
#2710
1)
1.
b111 a
#2720
0)
0.
#2730
1)
1.
b1000 a
#2740
0)
0.
#2750
1)
1.
b1001 a
#2760
0)
0.
#2770
1)
1.
b1010 a
b0 a
1<
19
1!
#2780
0)
0.
#2790
1)
1.
b1 a
0B
0<
09
0!
#2800
0)
0.
#2810
1)
1.
1B
#2820
0)
0.
#2830
1)
1.
b10 a
1C
#2840
0)
0.
#2850
1)
1.
b11 a
1=
#2860
0)
0.
#2870
1)
1.
b100 a
0=
0C
#2880
0)
0.
#2890
1)
1.
b101 a
#2900
0)
0.
#2910
1)
1.
b110 a
#2920
0)
0.
#2930
1)
1.
b111 a
#2940
0)
0.
#2950
1)
1.
b1000 a
#2960
0)
0.
#2970
1)
1.
b1001 a
#2980
0)
0.
#2990
1)
1.
b1010 a
b0 a
1<
19
1!
#3000
0)
0.
#3010
1)
1.
b1 a
0B
0<
09
0!
#3020
0)
0.
#3030
1)
1.
1B
#3040
0)
0.
#3050
1)
1.
b10 a
1C
#3060
0)
0.
#3070
1)
1.
b11 a
1=
#3080
0)
0.
#3090
1)
1.
b100 a
0=
0C
#3100
0)
0.
#3110
1)
1.
b101 a
#3120
0)
0.
#3130
1)
1.
b110 a
#3140
0)
0.
#3150
1)
1.
b111 a
#3160
0)
0.
#3170
1)
1.
b1000 a
#3180
0)
0.
#3190
1)
1.
b1001 a
#3200
0)
0.
#3210
1)
1.
b1010 a
b0 a
1<
19
1!
#3220
0)
0.
#3230
1)
1.
b1 a
0B
0<
09
0!
#3240
0)
0.
#3250
1)
1.
1B
#3260
0)
0.
#3270
1)
1.
b10 a
1C
#3280
0)
0.
#3290
1)
1.
b11 a
1=
#3300
0)
0.
#3310
1)
1.
b100 a
0=
0C
#3320
0)
0.
#3330
1)
1.
b101 a
#3340
0)
0.
#3350
1)
1.
b110 a
#3360
0)
0.
#3370
1)
1.
b111 a
#3380
0)
0.
#3390
1)
1.
b1000 a
#3400
0)
0.
#3410
1)
1.
b1001 a
#3420
0)
0.
#3430
1)
1.
b1010 a
b0 a
1<
19
1!
#3440
0)
0.
#3450
1)
1.
b1 a
0B
0<
09
0!
#3460
0)
0.
#3470
1)
1.
1B
#3480
0)
0.
#3490
1)
1.
b10 a
1C
#3500
0)
0.
#3510
1)
1.
b11 a
1=
#3520
0)
0.
#3530
1)
1.
b100 a
0=
0C
#3540
0)
0.
#3550
1)
1.
b101 a
#3560
0)
0.
#3570
1)
1.
b110 a
#3580
0)
0.
#3590
1)
1.
b111 a
#3600
0)
0.
#3610
1)
1.
b1000 a
#3620
0)
0.
#3630
1)
1.
b1001 a
#3640
0)
0.
#3650
1)
1.
b1010 a
b0 a
1<
19
1!
#3660
0)
0.
#3670
1)
1.
b1 a
0B
0<
09
0!
#3680
0)
0.
#3690
1)
1.
1B
#3700
0)
0.
#3710
1)
1.
b10 a
1C
#3720
0)
0.
#3730
1)
1.
b11 a
1=
#3740
0)
0.
#3750
1)
1.
b100 a
0=
0C
#3760
0)
0.
#3770
1)
1.
b101 a
#3780
0)
0.
#3790
1)
1.
b110 a
#3800
0)
0.
#3810
1)
1.
b111 a
#3820
0)
0.
#3830
1)
1.
b1000 a
#3840
0)
0.
#3850
1)
1.
b1001 a
#3860
0)
0.
#3870
1)
1.
b1010 a
b0 a
1<
19
1!
#3880
0)
0.
#3890
1)
1.
b1 a
0B
0<
09
0!
#3900
0)
0.
#3910
1)
1.
1B
#3920
0)
0.
#3930
1)
1.
b10 a
1C
#3940
0)
0.
#3950
1)
1.
b11 a
1=
#3960
0)
0.
#3970
1)
1.
b100 a
0=
0C
#3980
0)
0.
#3990
1)
1.
b101 a
#4000
0)
0.
#4010
1)
1.
b110 a
#4020
0)
0.
#4030
1)
1.
b111 a
#4040
0)
0.
#4050
1)
1.
b1000 a
#4060
0)
0.
#4070
1)
1.
b1001 a
#4080
0)
0.
#4090
1)
1.
b1010 a
b0 a
1<
19
1!
#4100
0)
0.
#4110
1)
1.
b1 a
0B
0<
09
0!
#4120
0)
0.
#4130
1)
1.
1B
#4140
0)
0.
#4150
1)
1.
b10 a
1C
#4160
0)
0.
#4170
1)
1.
b11 a
1=
#4180
0)
0.
#4190
1)
1.
b100 a
0=
0C
#4200
0)
0.
#4210
1)
1.
b101 a
#4220
0)
0.
#4230
1)
1.
b110 a
#4240
0)
0.
#4250
1)
1.
b111 a
#4260
0)
0.
#4270
1)
1.
b1000 a
#4280
0)
0.
#4290
1)
1.
b1001 a
#4300
0)
0.
#4310
1)
1.
b1010 a
b0 a
1<
19
1!
#4320
0)
0.
#4330
1)
1.
b1 a
0B
0<
09
0!
#4340
0)
0.
#4350
1)
1.
1B
#4360
0)
0.
#4370
1)
1.
b10 a
1C
#4380
0)
0.
#4390
1)
1.
b11 a
1=
#4400
0)
0.
#4410
1)
1.
b100 a
0=
0C
#4420
0)
0.
#4430
1)
1.
b101 a
#4440
0)
0.
#4450
1)
1.
b110 a
#4460
0)
0.
#4470
1)
1.
b111 a
#4480
0)
0.
#4490
1)
1.
b1000 a
#4500
0)
0.
#4510
1)
1.
b1001 a
#4520
0)
0.
#4530
1)
1.
b1010 a
b0 a
1<
19
1!
#4540
0)
0.
#4550
1)
1.
b1 a
0B
0<
09
0!
#4560
0)
0.
#4570
1)
1.
1B
#4580
0)
0.
#4590
1)
1.
b10 a
1C
#4600
0)
0.
#4610
1)
1.
b11 a
1=
#4620
0)
0.
#4630
1)
1.
b100 a
0=
0C
#4640
0)
0.
#4650
1)
1.
b101 a
#4660
0)
0.
#4670
1)
1.
b110 a
#4680
0)
0.
#4690
1)
1.
b111 a
#4700
0)
0.
#4710
1)
1.
b1000 a
#4720
0)
0.
#4730
1)
1.
b1001 a
#4740
0)
0.
#4750
1)
1.
b1010 a
b0 a
1<
19
1!
#4760
0)
0.
#4770
1)
1.
b1 a
0B
0<
09
0!
#4780
0)
0.
#4790
1)
1.
1B
#4800
0)
0.
#4810
1)
1.
b10 a
1C
#4820
0)
0.
#4830
1)
1.
b11 a
1=
#4840
0)
0.
#4850
1)
1.
b100 a
0=
0C
#4860
0)
0.
#4870
1)
1.
b101 a
#4880
0)
0.
#4890
1)
1.
b110 a
#4900
0)
0.
#4910
1)
1.
b111 a
#4920
0)
0.
#4930
1)
1.
b1000 a
#4940
0)
0.
#4950
1)
1.
b1001 a
#4960
0)
0.
#4970
1)
1.
b1010 a
b0 a
1<
19
1!
#4980
0)
0.
#4990
1)
1.
b1 a
0B
0<
09
0!
#5000
0)
0.
#5010
1)
1.
1B
#5020
0)
0.
#5030
1)
1.
b10 a
1C
#5040
0)
0.
#5050
1)
1.
b11 a
1=
#5060
0)
0.
#5070
1)
1.
b100 a
0=
0C
#5080
0)
0.
#5090
1)
1.
b101 a
#5100
0)
0.
#5110
1)
1.
b110 a
#5120
0)
0.
#5130
1)
1.
b111 a
#5140
0)
0.
#5150
1)
1.
b1000 a
#5160
0)
0.
#5170
1)
1.
b1001 a
#5180
0)
0.
#5190
1)
1.
b1010 a
b0 a
1<
19
1!
#5200
0)
0.
#5210
1)
1.
b1 a
0B
0<
09
0!
#5220
0)
0.
#5230
1)
1.
1B
#5240
0)
0.
#5250
1)
1.
b10 a
1C
#5260
0)
0.
#5270
1)
1.
b11 a
1=
#5280
0)
0.
#5290
1)
1.
b100 a
0=
0C
#5300
0)
0.
#5310
1)
1.
b101 a
#5320
0)
0.
#5330
1)
1.
b110 a
#5340
0)
0.
#5350
1)
1.
b111 a
#5360
0)
0.
#5370
1)
1.
b1000 a
#5380
0)
0.
#5390
1)
1.
b1001 a
#5400
0)
0.
#5410
1)
1.
b1010 a
b0 a
1<
19
1!
#5420
0)
0.
#5430
1)
1.
b1 a
0B
0<
09
0!
#5440
0)
0.
#5450
1)
1.
1B
#5460
0)
0.
#5470
1)
1.
b10 a
1C
#5480
0)
0.
#5490
1)
1.
b11 a
1=
#5500
0)
0.
#5510
1)
1.
b100 a
0=
0C
#5520
0)
0.
#5530
1)
1.
b101 a
#5540
0)
0.
#5550
1)
1.
b110 a
#5560
0)
0.
#5570
1)
1.
b111 a
#5580
0)
0.
#5590
1)
1.
b1000 a
#5600
0)
0.
#5610
1)
1.
b1001 a
#5620
0)
0.
#5630
1)
1.
b1010 a
b0 a
1<
19
1!
#5640
0)
0.
#5650
1)
1.
b1 a
0B
0<
09
0!
#5660
0)
0.
#5670
1)
1.
1B
#5680
0)
0.
#5690
1)
1.
b10 a
1C
#5700
0)
0.
#5710
1)
1.
b11 a
1=
#5720
0)
0.
#5730
1)
1.
b100 a
0=
0C
#5740
0)
0.
#5750
1)
1.
b101 a
#5760
0)
0.
#5770
1)
1.
b110 a
#5780
0)
0.
#5790
1)
1.
b111 a
#5800
0)
0.
#5810
1)
1.
b1000 a
#5820
0)
0.
#5830
1)
1.
b1001 a
#5840
0)
0.
#5850
1)
1.
b1010 a
b0 a
1<
19
1!
#5860
0)
0.
#5870
1)
1.
b1 a
0B
0<
09
0!
#5880
0)
0.
#5890
1)
1.
1B
#5900
0)
0.
#5910
1)
1.
b10 a
1C
#5920
0)
0.
#5930
1)
1.
b11 a
1=
#5940
0)
0.
#5950
1)
1.
b100 a
0=
0C
#5960
0)
0.
#5970
1)
1.
b101 a
#5980
0)
0.
#5990
1)
1.
b110 a
#6000
0)
0.
#6010
1)
1.
b111 a
#6020
0)
0.
#6030
1)
1.
b1000 a
#6040
0)
0.
#6050
1)
1.
b1001 a
#6060
0)
0.
#6070
1)
1.
b1010 a
b0 a
1<
19
1!
#6080
0)
0.
#6090
1)
1.
b1 a
0B
0<
09
0!
#6100
0)
0.
#6110
1)
1.
1B
#6120
0)
0.
#6130
1)
1.
b10 a
1C
#6140
0)
0.
#6150
1)
1.
b11 a
1=
#6160
0)
0.
#6170
1)
1.
b100 a
0=
0C
#6180
0)
0.
#6190
1)
1.
b101 a
#6200
0)
0.
#6210
1)
1.
b110 a
#6220
0)
0.
#6230
1)
1.
b111 a
#6240
0)
0.
#6250
1)
1.
b1000 a
#6260
0)
0.
#6270
1)
1.
b1001 a
#6280
0)
0.
#6290
1)
1.
b1010 a
b0 a
1<
19
1!
#6300
0)
0.
#6310
1)
1.
b1 a
0B
0<
09
0!
#6320
0)
0.
#6330
1)
1.
1B
#6340
0)
0.
#6350
1)
1.
b10 a
1C
#6360
0)
0.
#6370
1)
1.
b11 a
1=
#6380
0)
0.
#6390
1)
1.
b100 a
0=
0C
#6400
0)
0.
#6410
1)
1.
b101 a
#6420
0)
0.
#6430
1)
1.
b110 a
#6440
0)
0.
#6450
1)
1.
b111 a
#6460
0)
0.
#6470
1)
1.
b1000 a
#6480
0)
0.
#6490
1)
1.
b1001 a
#6500
0)
0.
#6510
1)
1.
b1010 a
b0 a
1<
19
1!
#6520
0)
0.
#6530
1)
1.
b1 a
0B
0<
09
0!
#6540
0)
0.
#6550
1)
1.
1B
#6560
0)
0.
#6570
1)
1.
b10 a
1C
#6580
0)
0.
#6590
1)
1.
b11 a
1=
#6600
0)
0.
#6610
1)
1.
b100 a
0=
0C
#6620
0)
0.
#6630
1)
1.
b101 a
#6640
0)
0.
#6650
1)
1.
b110 a
#6660
0)
0.
#6670
1)
1.
b111 a
#6680
0)
0.
#6690
1)
1.
b1000 a
#6700
0)
0.
#6710
1)
1.
b1001 a
#6720
0)
0.
#6730
1)
1.
b1010 a
b0 a
1<
19
1!
#6740
0)
0.
#6750
1)
1.
b1 a
0B
0<
09
0!
#6760
0)
0.
#6770
1)
1.
1B
#6780
0)
0.
#6790
1)
1.
b10 a
1C
#6800
0)
0.
#6810
1)
1.
b11 a
1=
#6820
0)
0.
#6830
1)
1.
b100 a
0=
0C
#6840
0)
0.
#6850
1)
1.
b101 a
#6860
0)
0.
#6870
1)
1.
b110 a
#6880
0)
0.
#6890
1)
1.
b111 a
#6900
0)
0.
#6910
1)
1.
b1000 a
#6920
0)
0.
#6930
1)
1.
b1001 a
#6940
0)
0.
#6950
1)
1.
b1010 a
b0 a
1<
19
1!
#6960
0)
0.
#6970
1)
1.
b1 a
0B
0<
09
0!
#6980
0)
0.
#6990
1)
1.
1B
#7000
0)
0.
#7010
1)
1.
b10 a
1C
#7020
0)
0.
#7030
1)
1.
b11 a
1=
#7040
0)
0.
#7050
1)
1.
b100 a
0=
0C
#7060
0)
0.
#7070
1)
1.
b101 a
#7080
0)
0.
#7090
1)
1.
b110 a
#7100
0)
0.
#7110
1)
1.
b111 a
#7120
0)
0.
#7130
1)
1.
b1000 a
#7140
0)
0.
#7150
1)
1.
b1001 a
#7160
0)
0.
#7170
1)
1.
b1010 a
b0 a
1<
19
1!
#7180
0)
0.
#7190
1)
1.
b1 a
0B
0<
09
0!
#7200
0)
0.
#7210
1)
1.
1B
#7220
0)
0.
#7230
1)
1.
b10 a
1C
#7240
0)
0.
#7250
1)
1.
b11 a
1=
#7260
0)
0.
#7270
1)
1.
b100 a
0=
0C
#7280
0)
0.
#7290
1)
1.
b101 a
#7300
0)
0.
#7310
1)
1.
b110 a
#7320
0)
0.
#7330
1)
1.
b111 a
#7340
0)
0.
#7350
1)
1.
b1000 a
#7360
0)
0.
#7370
1)
1.
b1001 a
#7380
0)
0.
#7390
1)
1.
b1010 a
b0 a
1<
19
1!
#7400
0)
0.
#7410
1)
1.
b1 a
0B
0<
09
0!
#7420
0)
0.
#7430
1)
1.
1B
#7440
0)
0.
#7450
1)
1.
b10 a
1C
#7460
0)
0.
#7470
1)
1.
b11 a
1=
#7480
0)
0.
#7490
1)
1.
b100 a
0=
0C
#7500
0)
0.
#7510
1)
1.
b101 a
#7520
0)
0.
#7530
1)
1.
b110 a
#7540
0)
0.
#7550
1)
1.
b111 a
#7560
0)
0.
#7570
1)
1.
b1000 a
#7580
0)
0.
#7590
1)
1.
b1001 a
#7600
0)
0.
#7610
1)
1.
b1010 a
b0 a
1<
19
1!
#7620
0)
0.
#7630
1)
1.
b1 a
0B
0<
09
0!
#7640
0)
0.
#7650
1)
1.
1B
#7660
0)
0.
#7670
1)
1.
b10 a
1C
#7680
0)
0.
#7690
1)
1.
b11 a
1=
#7700
0)
0.
#7710
1)
1.
b100 a
0=
0C
#7720
0)
0.
#7730
1)
1.
b101 a
#7740
0)
0.
#7750
1)
1.
b110 a
#7760
0)
0.
#7770
1)
1.
b111 a
#7780
0)
0.
#7790
1)
1.
b1000 a
#7800
0)
0.
#7810
1)
1.
b1001 a
#7820
0)
0.
#7830
1)
1.
b1010 a
b0 a
1<
19
1!
#7840
0)
0.
#7850
1)
1.
b1 a
0B
0<
09
0!
#7860
0)
0.
#7870
1)
1.
1B
#7880
0)
0.
#7890
1)
1.
b10 a
1C
#7900
0)
0.
#7910
1)
1.
b11 a
1=
#7920
0)
0.
#7930
1)
1.
b100 a
0=
0C
#7940
0)
0.
#7950
1)
1.
b101 a
#7960
0)
0.
#7970
1)
1.
b110 a
#7980
0)
0.
#7990
1)
1.
b111 a
#8000
0)
0.
#8010
1)
1.
b1000 a
#8020
0)
0.
#8030
1)
1.
b1001 a
#8040
0)
0.
#8050
1)
1.
b1010 a
b0 a
1<
19
1!
#8060
0)
0.
#8070
1)
1.
b1 a
0B
0<
09
0!
#8080
0)
0.
#8090
1)
1.
1B
#8100
0)
0.
#8110
1)
1.
b10 a
1C
#8120
0)
0.
#8130
1)
1.
b11 a
1=
#8140
0)
0.
#8150
1)
1.
b100 a
0=
0C
#8160
0)
0.
#8170
1)
1.
b101 a
#8180
0)
0.
#8190
1)
1.
b110 a
#8200
0)
0.
#8210
1)
1.
b111 a
#8220
0)
0.
#8230
1)
1.
b1000 a
#8240
0)
0.
#8250
1)
1.
b1001 a
#8260
0)
0.
#8270
1)
1.
b1010 a
b0 a
1<
19
1!
#8280
0)
0.
#8290
1)
1.
b1 a
0B
0<
09
0!
#8300
0)
0.
#8310
1)
1.
1B
#8320
0)
0.
#8330
1)
1.
b10 a
1C
#8340
0)
0.
#8350
1)
1.
b11 a
1=
#8360
0)
0.
#8370
1)
1.
b100 a
0=
0C
#8380
0)
0.
#8390
1)
1.
b101 a
#8400
0)
0.
#8410
1)
1.
b110 a
#8420
0)
0.
#8430
1)
1.
b111 a
#8440
0)
0.
#8450
1)
1.
b1000 a
#8460
0)
0.
